\relax 
\providecommand\hyper@newdestlabel[2]{}
\@writefile{toc}{\contentsline {chapter}{\numberline {A}Additional Figures, Code and Files}{68}{appendix.A}\protected@file@percent }
\@writefile{lof}{\addvspace {10\p@ }}
\@writefile{lot}{\addvspace {10\p@ }}
\@writefile{loa}{\addvspace {10\p@ }}
\@writefile{toc}{\contentsline {section}{\numberline {A.1}Additional figures}{68}{section.A.1}\protected@file@percent }
\newlabel{app: sec: additional_figures}{{A.1}{68}{Additional figures}{section.A.1}{}}
\@writefile{lof}{\contentsline {figure}{\numberline {A.1}{\ignorespaces Bit swapping and showing reduction of computation. \textquotedblleft .\textquotedblright Indicates 0. Sparse matrices are computationally lighter than dense matrices\relax }}{68}{figure.caption.85}\protected@file@percent }
\newlabel{fig: bit_Swapping}{{A.1}{68}{Bit swapping and showing reduction of computation. \textquotedblleft .\textquotedblright Indicates 0. Sparse matrices are computationally lighter than dense matrices\relax }{figure.caption.85}{}}
\@writefile{lof}{\contentsline {figure}{\numberline {A.2}{\ignorespaces Simple setup used to test the Mic-amp system\relax }}{69}{figure.caption.86}\protected@file@percent }
\newlabel{fig: app: experiment 1 setup}{{A.2}{69}{Simple setup used to test the Mic-amp system\relax }{figure.caption.86}{}}
\@writefile{lof}{\contentsline {figure}{\numberline {A.3}{\ignorespaces Signal Tap used to measure the ADC output for Experiment 2\relax }}{69}{figure.caption.87}\protected@file@percent }
\newlabel{fig: app: signal tap}{{A.3}{69}{Signal Tap used to measure the ADC output for Experiment 2\relax }{figure.caption.87}{}}
\@writefile{lof}{\contentsline {figure}{\numberline {A.4}{\ignorespaces Signal Tap used to measure important signals for Experiment 4\relax }}{69}{figure.caption.88}\protected@file@percent }
\newlabel{fig: app: signal tap final}{{A.4}{69}{Signal Tap used to measure important signals for Experiment 4\relax }{figure.caption.88}{}}
\@writefile{lof}{\contentsline {figure}{\numberline {A.5}{\ignorespaces 6.25kHz Signal Generated using Audacity\relax }}{69}{figure.caption.89}\protected@file@percent }
\newlabel{fig: app: 6.25kHz}{{A.5}{69}{6.25kHz Signal Generated using Audacity\relax }{figure.caption.89}{}}
\@writefile{lof}{\contentsline {figure}{\numberline {A.6}{\ignorespaces Pin Layout for Vexriscv Core pg 1\relax }}{70}{figure.caption.90}\protected@file@percent }
\newlabel{app: subsec: adc vexriscv}{{A.6}{70}{Pin Layout for Vexriscv Core pg 1\relax }{figure.caption.90}{}}
\@writefile{lof}{\contentsline {figure}{\numberline {A.7}{\ignorespaces Pin Layout for Vexriscv Core pg 2\relax }}{71}{figure.caption.91}\protected@file@percent }
\@writefile{lof}{\contentsline {figure}{\numberline {A.8}{\ignorespaces Pin Layout for Vexriscv Core pg 2\relax }}{72}{figure.caption.92}\protected@file@percent }
\@writefile{toc}{\contentsline {section}{\numberline {A.2}Additional Code}{73}{section.A.2}\protected@file@percent }
\newlabel{app: sec: additional code}{{A.2}{73}{Additional Code}{section.A.2}{}}
\@writefile{toc}{\contentsline {subsection}{\numberline {A.2.1}Code for the ADC SPI Interface }{73}{subsection.A.2.1}\protected@file@percent }
\newlabel{app: subsec: SPI_interface}{{A.2.1}{73}{Code for the ADC SPI Interface}{subsection.A.2.1}{}}
\@writefile{toc}{\contentsline {subsection}{\numberline {A.2.2}Code for implementing the FFT on ADC}{74}{subsection.A.2.2}\protected@file@percent }
\newlabel{app: subsec: fft on adc}{{A.2.2}{74}{Code for implementing the FFT on ADC}{subsection.A.2.2}{}}
\@writefile{toc}{\contentsline {subsection}{\numberline {A.2.3}Code to Verify Frequency Read by ADC}{77}{subsection.A.2.3}\protected@file@percent }
\newlabel{app: subsec: matlab verify}{{A.2.3}{77}{Code to Verify Frequency Read by ADC}{subsection.A.2.3}{}}
\@writefile{toc}{\contentsline {subsection}{\numberline {A.2.4}Code to Read in Wave File}{77}{subsection.A.2.4}\protected@file@percent }
\newlabel{app: subsec: wave file}{{A.2.4}{77}{Code to Read in Wave File}{subsection.A.2.4}{}}
\@writefile{toc}{\contentsline {subsection}{\numberline {A.2.5}Code to implement FFT}{80}{subsection.A.2.5}\protected@file@percent }
\newlabel{app: subsec: fft}{{A.2.5}{80}{Code to implement FFT}{subsection.A.2.5}{}}
\@setckpt{appendixa}{
\setcounter{page}{83}
\setcounter{equation}{0}
\setcounter{enumi}{8}
\setcounter{enumii}{6}
\setcounter{enumiii}{0}
\setcounter{enumiv}{50}
\setcounter{footnote}{0}
\setcounter{mpfootnote}{0}
\setcounter{part}{0}
\setcounter{chapter}{1}
\setcounter{section}{2}
\setcounter{subsection}{5}
\setcounter{subsubsection}{0}
\setcounter{paragraph}{0}
\setcounter{subparagraph}{0}
\setcounter{figure}{8}
\setcounter{table}{0}
\setcounter{parentequation}{0}
\setcounter{Item}{44}
\setcounter{Hfootnote}{0}
\setcounter{bookmark@seq@number}{86}
\setcounter{caption@flags}{0}
\setcounter{ContinuedFloat}{0}
\setcounter{subfigure}{0}
\setcounter{subtable}{0}
\setcounter{lstnumber}{137}
\setcounter{AM@survey}{0}
\setcounter{AlgoLine}{0}
\setcounter{algocfline}{0}
\setcounter{algocfproc}{0}
\setcounter{algocf}{0}
\setcounter{section@level}{2}
\setcounter{lstlisting}{0}
}
