\relax 
\providecommand\hyper@newdestlabel[2]{}
\@writefile{toc}{\contentsline {chapter}{\numberline {B}Addenda}{83}{appendix.B}\protected@file@percent }
\@writefile{lof}{\addvspace {10\p@ }}
\@writefile{lot}{\addvspace {10\p@ }}
\@writefile{loa}{\addvspace {10\p@ }}
\@writefile{toc}{\contentsline {section}{\numberline {B.1}Ethics Form}{83}{section.B.1}\protected@file@percent }
\@writefile{toc}{\contentsline {section}{\numberline {B.2}Bitbucket Link}{85}{section.B.2}\protected@file@percent }
\@setckpt{appendixb}{
\setcounter{page}{86}
\setcounter{equation}{0}
\setcounter{enumi}{8}
\setcounter{enumii}{6}
\setcounter{enumiii}{0}
\setcounter{enumiv}{50}
\setcounter{footnote}{0}
\setcounter{mpfootnote}{0}
\setcounter{part}{0}
\setcounter{chapter}{2}
\setcounter{section}{2}
\setcounter{subsection}{0}
\setcounter{subsubsection}{0}
\setcounter{paragraph}{0}
\setcounter{subparagraph}{0}
\setcounter{figure}{0}
\setcounter{table}{0}
\setcounter{parentequation}{0}
\setcounter{Item}{44}
\setcounter{Hfootnote}{0}
\setcounter{bookmark@seq@number}{89}
\setcounter{caption@flags}{0}
\setcounter{ContinuedFloat}{0}
\setcounter{subfigure}{0}
\setcounter{subtable}{0}
\setcounter{lstnumber}{137}
\setcounter{AM@survey}{0}
\setcounter{AlgoLine}{0}
\setcounter{algocfline}{0}
\setcounter{algocfproc}{0}
\setcounter{algocf}{0}
\setcounter{section@level}{1}
\setcounter{lstlisting}{0}
}
