\relax 
\providecommand\hyper@newdestlabel[2]{}
\@writefile{toc}{\contentsline {chapter}{\numberline {5}Detailed Design}{29}{chapter.5}\protected@file@percent }
\@writefile{lof}{\addvspace {10\p@ }}
\@writefile{lot}{\addvspace {10\p@ }}
\@writefile{loa}{\addvspace {10\p@ }}
\newlabel{Chap: Detailed_design}{{5}{29}{Detailed Design}{chapter.5}{}}
\@writefile{lof}{\contentsline {figure}{\numberline {5.1}{\ignorespaces Generating a 1kHz sine wave in audacity\relax }}{29}{figure.caption.34}\protected@file@percent }
\newlabel{fig: audacity}{{5.1}{29}{Generating a 1kHz sine wave in audacity\relax }{figure.caption.34}{}}
\citation{MAX9814}
\@writefile{toc}{\contentsline {section}{\numberline {5.1}HDL Design}{30}{section.5.1}\protected@file@percent }
\newlabel{sec: DD HDL Design}{{5.1}{30}{HDL Design}{section.5.1}{}}
\@writefile{toc}{\contentsline {subsection}{\numberline {5.1.1}Experiment 1 - HS1 - Mic-amp system}{30}{subsection.5.1.1}\protected@file@percent }
\newlabel{subsec: DD HL experiment 1}{{5.1.1}{30}{Experiment 1 - HS1 - Mic-amp system}{subsection.5.1.1}{}}
\@writefile{toc}{\contentsline {subsubsection}{Experiment Setup}{30}{section*.35}\protected@file@percent }
\@writefile{lof}{\contentsline {figure}{\numberline {5.2}{\ignorespaces Experiment 1 setup\relax }}{30}{figure.caption.36}\protected@file@percent }
\newlabel{fig: experiment 1}{{5.2}{30}{Experiment 1 setup\relax }{figure.caption.36}{}}
\@writefile{toc}{\contentsline {subsubsection}{Experiment Procedure and Expectations}{30}{section*.37}\protected@file@percent }
\citation{Intel2017ADC}
\@writefile{toc}{\contentsline {subsection}{\numberline {5.1.2}Experiment 2 - HS2 - ADC system}{31}{subsection.5.1.2}\protected@file@percent }
\newlabel{subsec: DD HL experiment 2}{{5.1.2}{31}{Experiment 2 - HS2 - ADC system}{subsection.5.1.2}{}}
\@writefile{toc}{\contentsline {subsubsection}{Experiment Setup}{31}{section*.38}\protected@file@percent }
\@writefile{lof}{\contentsline {figure}{\numberline {5.3}{\ignorespaces Setup used for Experiments 2 - 6\relax }}{31}{figure.caption.39}\protected@file@percent }
\newlabel{fig: setup}{{5.3}{31}{Setup used for Experiments 2 - 6\relax }{figure.caption.39}{}}
\@writefile{toc}{\contentsline {subsubsection}{Experiment Procedure and Expectations}{31}{section*.40}\protected@file@percent }
\citation{Intel2017FFTCore}
\@writefile{toc}{\contentsline {subsection}{\numberline {5.1.3}Experiment 3 - HS3 - FFT Codes}{32}{subsection.5.1.3}\protected@file@percent }
\newlabel{subsec: DD HL experiment 3}{{5.1.3}{32}{Experiment 3 - HS3 - FFT Codes}{subsection.5.1.3}{}}
\@writefile{lot}{\contentsline {table}{\numberline {5.1}{\ignorespaces Table of important parameters for Intel's FFT IP Core\relax }}{32}{table.caption.41}\protected@file@percent }
\newlabel{tbl: fft parameters}{{5.1}{32}{Table of important parameters for Intel's FFT IP Core\relax }{table.caption.41}{}}
\@writefile{toc}{\contentsline {subsection}{\numberline {5.1.4}Experiment 4 - HS4 - Implementing FFT}{33}{subsection.5.1.4}\protected@file@percent }
\newlabel{subsec: DD HL experiment 4}{{5.1.4}{33}{Experiment 4 - HS4 - Implementing FFT}{subsection.5.1.4}{}}
\@writefile{toc}{\contentsline {subsubsection}{Experiment Setup}{33}{section*.42}\protected@file@percent }
\@writefile{lof}{\contentsline {figure}{\numberline {5.4}{\ignorespaces Experimental Setup for Implementing an FFT on the Audio Stream\relax }}{33}{figure.caption.43}\protected@file@percent }
\newlabel{fig: fft_block_diagram}{{5.4}{33}{Experimental Setup for Implementing an FFT on the Audio Stream\relax }{figure.caption.43}{}}
\@writefile{toc}{\contentsline {subsubsection}{Experiment Procedure and Expectations}{33}{section*.44}\protected@file@percent }
\citation{Garrido2014}
\@writefile{toc}{\contentsline {subsection}{\numberline {5.1.5}Experiment 5 - HS5 - Measuring Power Consumption}{34}{subsection.5.1.5}\protected@file@percent }
\newlabel{subsec: DD HL experiment 5}{{5.1.5}{34}{Experiment 5 - HS5 - Measuring Power Consumption}{subsection.5.1.5}{}}
\newlabel{eqn: FPGA_usage_quartus}{{5.1}{34}{Experiment 5 - HS5 - Measuring Power Consumption}{equation.5.1.1}{}}
\@writefile{toc}{\contentsline {subsection}{\numberline {5.1.6}Experiment 6 - HS6 - Measuring the Speed and Ease of Implementation }{34}{subsection.5.1.6}\protected@file@percent }
\newlabel{subsec: DD HL experiment 6}{{5.1.6}{34}{Experiment 6 - HS6 - Measuring the Speed and Ease of Implementation}{subsection.5.1.6}{}}
\newlabel{eqn: speed of implementation}{{5.2}{34}{Experiment 6 - HS6 - Measuring the Speed and Ease of Implementation}{equation.5.1.2}{}}
\citation{wave}
\newlabel{eqn: speed of execution}{{5.3}{35}{Experiment 6 - HS6 - Measuring the Speed and Ease of Implementation}{equation.5.1.3}{}}
\@writefile{toc}{\contentsline {section}{\numberline {5.2}RISC-V Design}{35}{section.5.2}\protected@file@percent }
\newlabel{sec: DD RV Design}{{5.2}{35}{RISC-V Design}{section.5.2}{}}
\@writefile{toc}{\contentsline {subsection}{\numberline {5.2.1}Experiment 1 - RS1 - Implementing FFT in C}{35}{subsection.5.2.1}\protected@file@percent }
\newlabel{subsec: DD RV experiment 1}{{5.2.1}{35}{Experiment 1 - RS1 - Implementing FFT in C}{subsection.5.2.1}{}}
\citation{ffmpeg}
\citation{lsbsndfile}
\citation{read_wave}
\citation{FFTW05}
\citation{KISSFFT}
\citation{fft_code}
\@writefile{toc}{\contentsline {subsubsection}{Reading audio signal}{36}{section*.45}\protected@file@percent }
\@writefile{lof}{\contentsline {figure}{\numberline {5.5}{\ignorespaces Various important parts of a wave file\relax }}{36}{figure.caption.46}\protected@file@percent }
\newlabel{fig: wave}{{5.5}{36}{Various important parts of a wave file\relax }{figure.caption.46}{}}
\@writefile{toc}{\contentsline {subsubsection}{FFT in C}{36}{section*.47}\protected@file@percent }
\citation{qemu}
\citation{RISCV_getting_started}
\citation{debian}
\@writefile{toc}{\contentsline {subsection}{\numberline {5.2.2}Experiment 2 - RS2 - Setup Qemu}{37}{subsection.5.2.2}\protected@file@percent }
\newlabel{subsec: DD RV experiment 2 - qemu}{{5.2.2}{37}{Experiment 2 - RS2 - Setup Qemu}{subsection.5.2.2}{}}
\citation{LinunxOnLitex}
\@writefile{toc}{\contentsline {subsection}{\numberline {5.2.3}Experiment 3 - RS3 \& RS4 - Implementing FFT on Linux on RISC-V - Emulation}{38}{subsection.5.2.3}\protected@file@percent }
\newlabel{subsec: DD RV experiment 3 - FFT in qemu}{{5.2.3}{38}{Experiment 3 - RS3 \& RS4 - Implementing FFT on Linux on RISC-V - Emulation}{subsection.5.2.3}{}}
\@writefile{toc}{\contentsline {subsection}{\numberline {5.2.4}Experiment 4 - RS5 \& RS6 - Implementing RISC-V Core and Linux on FPGA}{38}{subsection.5.2.4}\protected@file@percent }
\newlabel{subsec: DD RV experiment 4 - RISCV on FPGA}{{5.2.4}{38}{Experiment 4 - RS5 \& RS6 - Implementing RISC-V Core and Linux on FPGA}{subsection.5.2.4}{}}
\citation{Altera2012}
\@writefile{toc}{\contentsline {subsection}{\numberline {5.2.5}Experiment 5 - RS7 \& RS8 - Implementing FFT on Audio Stream on Linux, Vexriscv Core on FPGA}{39}{subsection.5.2.5}\protected@file@percent }
\newlabel{subsec: DD RV experiment 5 - fft and adc}{{5.2.5}{39}{Experiment 5 - RS7 \& RS8 - Implementing FFT on Audio Stream on Linux, Vexriscv Core on FPGA}{subsection.5.2.5}{}}
\@writefile{toc}{\contentsline {subsection}{\numberline {5.2.6}Experiment 6 - RS9 - Resources Consumed and Ease of Implementation}{40}{subsection.5.2.6}\protected@file@percent }
\newlabel{subsec: DD RV experiment 6 - resources and ease}{{5.2.6}{40}{Experiment 6 - RS9 - Resources Consumed and Ease of Implementation}{subsection.5.2.6}{}}
\@setckpt{Detailed_Design}{
\setcounter{page}{41}
\setcounter{equation}{3}
\setcounter{enumi}{8}
\setcounter{enumii}{6}
\setcounter{enumiii}{0}
\setcounter{enumiv}{0}
\setcounter{footnote}{0}
\setcounter{mpfootnote}{0}
\setcounter{part}{0}
\setcounter{chapter}{5}
\setcounter{section}{2}
\setcounter{subsection}{6}
\setcounter{subsubsection}{0}
\setcounter{paragraph}{0}
\setcounter{subparagraph}{0}
\setcounter{figure}{5}
\setcounter{table}{1}
\setcounter{parentequation}{0}
\setcounter{Item}{44}
\setcounter{Hfootnote}{0}
\setcounter{bookmark@seq@number}{49}
\setcounter{caption@flags}{0}
\setcounter{ContinuedFloat}{0}
\setcounter{subfigure}{0}
\setcounter{subtable}{0}
\setcounter{lstnumber}{17}
\setcounter{AM@survey}{0}
\setcounter{AlgoLine}{0}
\setcounter{algocfline}{0}
\setcounter{algocfproc}{0}
\setcounter{algocf}{0}
\setcounter{section@level}{2}
\setcounter{lstlisting}{0}
}
