\relax 
\providecommand\hyper@newdestlabel[2]{}
\@writefile{toc}{\contentsline {chapter}{\numberline {7}Discussion}{56}{chapter.7}\protected@file@percent }
\@writefile{lof}{\addvspace {10\p@ }}
\@writefile{lot}{\addvspace {10\p@ }}
\@writefile{loa}{\addvspace {10\p@ }}
\newlabel{Chap: Discussion}{{7}{56}{Discussion}{chapter.7}{}}
\@writefile{toc}{\contentsline {section}{\numberline {7.1}Review of Linux Capable RISC-V cores}{56}{section.7.1}\protected@file@percent }
\newlabel{sec: discussion- linux rv cores}{{7.1}{56}{Review of Linux Capable RISC-V cores}{section.7.1}{}}
\@writefile{toc}{\contentsline {section}{\numberline {7.2}FFT Implementation in HDL}{56}{section.7.2}\protected@file@percent }
\newlabel{sec: discussion- FFT implementation in HDL}{{7.2}{56}{FFT Implementation in HDL}{section.7.2}{}}
\@writefile{toc}{\contentsline {section}{\numberline {7.3}FFT Implementation in C (on Linux) on RISC-V Core - Qemu}{57}{section.7.3}\protected@file@percent }
\newlabel{sec: discussion- FFT implementation in Qemu}{{7.3}{57}{FFT Implementation in C (on Linux) on RISC-V Core - Qemu}{section.7.3}{}}
\@writefile{toc}{\contentsline {section}{\numberline {7.4}FFT Implementation in C (on Linux) on RISC-V Core - FPGA}{57}{section.7.4}\protected@file@percent }
\newlabel{sec: discussion- FFT implementation in FPGA}{{7.4}{57}{FFT Implementation in C (on Linux) on RISC-V Core - FPGA}{section.7.4}{}}
\@writefile{toc}{\contentsline {section}{\numberline {7.5}Comparison - HDL and RISC-V Implementations}{57}{section.7.5}\protected@file@percent }
\newlabel{sec: discussion- comparison}{{7.5}{57}{Comparison - HDL and RISC-V Implementations}{section.7.5}{}}
\@writefile{lot}{\contentsline {table}{\numberline {7.1}{\ignorespaces Summary Comparison of HDL and RISC-V FFT Implementations \relax }}{58}{table.caption.83}\protected@file@percent }
\newlabel{tbl: HDL vs rv comparison}{{7.1}{58}{Summary Comparison of HDL and RISC-V FFT Implementations \relax }{table.caption.83}{}}
\@writefile{toc}{\contentsline {subsection}{\numberline {7.5.1}FPGA Resources Utilised}{58}{subsection.7.5.1}\protected@file@percent }
\newlabel{sec: discussion- comparison 1 resources utilised}{{7.5.1}{58}{FPGA Resources Utilised}{subsection.7.5.1}{}}
\@writefile{toc}{\contentsline {subsection}{\numberline {7.5.2}Speed of Processing - Compilation}{58}{subsection.7.5.2}\protected@file@percent }
\newlabel{sec: discussion- comparison 2 speed of processing - compil}{{7.5.2}{58}{Speed of Processing - Compilation}{subsection.7.5.2}{}}
\@writefile{toc}{\contentsline {subsection}{\numberline {7.5.3}Speed of Procecssing - Execution}{59}{subsection.7.5.3}\protected@file@percent }
\newlabel{sec: discussion- comparison 2.1 speed of processing -exe}{{7.5.3}{59}{Speed of Procecssing - Execution}{subsection.7.5.3}{}}
\@writefile{toc}{\contentsline {subsection}{\numberline {7.5.4}Ease of Implementation}{59}{subsection.7.5.4}\protected@file@percent }
\newlabel{sec: discussion- comparison 3 ease of Implementation}{{7.5.4}{59}{Ease of Implementation}{subsection.7.5.4}{}}
\@writefile{toc}{\contentsline {subsection}{\numberline {7.5.5}FFT Accuracy}{59}{subsection.7.5.5}\protected@file@percent }
\newlabel{sec: discussion- comparison 4 FFT accuracy}{{7.5.5}{59}{FFT Accuracy}{subsection.7.5.5}{}}
\@writefile{toc}{\contentsline {subsection}{\numberline {7.5.6}Potential to Improve in Further Iterations}{59}{subsection.7.5.6}\protected@file@percent }
\newlabel{sec: discussion- comparison 5 FFT accuracy}{{7.5.6}{59}{Potential to Improve in Further Iterations}{subsection.7.5.6}{}}
\citation{newRVSOC}
\@writefile{toc}{\contentsline {section}{\numberline {7.6}Using an ASIC RISC-V core}{60}{section.7.6}\protected@file@percent }
\newlabel{sec: discussion- Silicon Implementation}{{7.6}{60}{Using an ASIC RISC-V core}{section.7.6}{}}
\@setckpt{Discussion}{
\setcounter{page}{61}
\setcounter{equation}{0}
\setcounter{enumi}{8}
\setcounter{enumii}{6}
\setcounter{enumiii}{0}
\setcounter{enumiv}{0}
\setcounter{footnote}{0}
\setcounter{mpfootnote}{0}
\setcounter{part}{0}
\setcounter{chapter}{7}
\setcounter{section}{6}
\setcounter{subsection}{0}
\setcounter{subsubsection}{0}
\setcounter{paragraph}{0}
\setcounter{subparagraph}{0}
\setcounter{figure}{0}
\setcounter{table}{1}
\setcounter{parentequation}{0}
\setcounter{Item}{44}
\setcounter{Hfootnote}{0}
\setcounter{bookmark@seq@number}{76}
\setcounter{caption@flags}{0}
\setcounter{ContinuedFloat}{0}
\setcounter{subfigure}{0}
\setcounter{subtable}{0}
\setcounter{lstnumber}{17}
\setcounter{AM@survey}{0}
\setcounter{AlgoLine}{0}
\setcounter{algocfline}{0}
\setcounter{algocfproc}{0}
\setcounter{algocf}{0}
\setcounter{section@level}{1}
\setcounter{lstlisting}{0}
}
