\relax 
\providecommand\hyper@newdestlabel[2]{}
\citation{Altera2012}
\citation{LinunxOnLitex}
\@writefile{toc}{\contentsline {chapter}{\numberline {4}High Level Design}{23}{chapter.4}\protected@file@percent }
\@writefile{lof}{\addvspace {10\p@ }}
\@writefile{lot}{\addvspace {10\p@ }}
\@writefile{loa}{\addvspace {10\p@ }}
\newlabel{Chap: High_level_design}{{4}{23}{High Level Design}{chapter.4}{}}
\@writefile{toc}{\contentsline {section}{\numberline {4.1}Subsystems}{23}{section.4.1}\protected@file@percent }
\newlabel{sec: HLD Subsytems}{{4.1}{23}{Subsystems}{section.4.1}{}}
\@writefile{lof}{\contentsline {figure}{\numberline {4.1}{\ignorespaces Interactions between the subsystems used in this project\relax }}{23}{figure.caption.24}\protected@file@percent }
\newlabel{fig: subsystems}{{4.1}{23}{Interactions between the subsystems used in this project\relax }{figure.caption.24}{}}
\citation{ADCInstruments2013}
\citation{MAX9814}
\citation{MAX9814}
\@writefile{toc}{\contentsline {subsection}{\numberline {4.1.1}FPGA}{24}{subsection.4.1.1}\protected@file@percent }
\newlabel{subsec: HDL FPGA}{{4.1.1}{24}{FPGA}{subsection.4.1.1}{}}
\@writefile{lof}{\contentsline {figure}{\numberline {4.2}{\ignorespaces The DE0- Nano Board\relax }}{24}{figure.caption.25}\protected@file@percent }
\newlabel{fig: DE0_nano}{{4.2}{24}{The DE0- Nano Board\relax }{figure.caption.25}{}}
\@writefile{toc}{\contentsline {subsection}{\numberline {4.1.2}Analog-to-Digital Converter - ADC}{24}{subsection.4.1.2}\protected@file@percent }
\newlabel{subsec: HDL ADC}{{4.1.2}{24}{Analog-to-Digital Converter - ADC}{subsection.4.1.2}{}}
\@writefile{lot}{\contentsline {table}{\numberline {4.1}{\ignorespaces Description of the pins on the ADC\relax }}{24}{table.caption.27}\protected@file@percent }
\newlabel{tbl: ADC_pins}{{4.1}{24}{Description of the pins on the ADC\relax }{table.caption.27}{}}
\citation{max_amp_adafruit}
\citation{max_amp_adafruit}
\citation{qemu}
\@writefile{lof}{\contentsline {figure}{\numberline {4.3}{\ignorespaces Schematic of the ADC128S022- the on board ADC\relax }}{25}{figure.caption.26}\protected@file@percent }
\newlabel{fig: ADC}{{4.3}{25}{Schematic of the ADC128S022- the on board ADC\relax }{figure.caption.26}{}}
\@writefile{toc}{\contentsline {subsection}{\numberline {4.1.3}Microphone}{25}{subsection.4.1.3}\protected@file@percent }
\newlabel{subsec: HDL Mic}{{4.1.3}{25}{Microphone}{subsection.4.1.3}{}}
\@writefile{lof}{\contentsline {figure}{\numberline {4.4}{\ignorespaces The mic-amp IC \cite  {max_amp_adafruit}\relax }}{25}{figure.caption.28}\protected@file@percent }
\newlabel{fig: mic_amp}{{4.4}{25}{The mic-amp IC \cite {max_amp_adafruit}\relax }{figure.caption.28}{}}
\citation{qemu}
\@writefile{toc}{\contentsline {section}{\numberline {4.2}Emulation}{26}{section.4.2}\protected@file@percent }
\@writefile{lof}{\contentsline {figure}{\numberline {4.5}{\ignorespaces Interactions Between the Subsystems for the RISC-V Emulation\relax }}{26}{figure.caption.29}\protected@file@percent }
\newlabel{fig: qemu plan}{{4.5}{26}{Interactions Between the Subsystems for the RISC-V Emulation\relax }{figure.caption.29}{}}
\@writefile{toc}{\contentsline {section}{\numberline {4.3}Requirements and Specifications}{26}{section.4.3}\protected@file@percent }
\newlabel{sec: HDL requirements}{{4.3}{26}{Requirements and Specifications}{section.4.3}{}}
\@writefile{lot}{\contentsline {table}{\numberline {4.2}{\ignorespaces HDL implementation Requirements (HR) \relax }}{26}{table.caption.30}\protected@file@percent }
\newlabel{tbl: HDL proj req}{{4.2}{26}{HDL implementation Requirements (HR) \relax }{table.caption.30}{}}
\@writefile{lot}{\contentsline {table}{\numberline {4.3}{\ignorespaces RISC-V implementation Requirements (RR) \relax }}{27}{table.caption.31}\protected@file@percent }
\newlabel{tbl: RISCV proj req}{{4.3}{27}{RISC-V implementation Requirements (RR) \relax }{table.caption.31}{}}
\@writefile{lot}{\contentsline {table}{\numberline {4.4}{\ignorespaces HDL technical specifications to meet requirements (HS) \relax }}{27}{table.caption.32}\protected@file@percent }
\newlabel{tbl: HDL specs}{{4.4}{27}{HDL technical specifications to meet requirements (HS) \relax }{table.caption.32}{}}
\@writefile{lot}{\contentsline {table}{\numberline {4.5}{\ignorespaces RISC-V technical specifications to meet requirements (RS) \relax }}{28}{table.caption.33}\protected@file@percent }
\newlabel{tbl: rv specs}{{4.5}{28}{RISC-V technical specifications to meet requirements (RS) \relax }{table.caption.33}{}}
\@setckpt{High_Level_Design}{
\setcounter{page}{29}
\setcounter{equation}{0}
\setcounter{enumi}{5}
\setcounter{enumii}{6}
\setcounter{enumiii}{0}
\setcounter{enumiv}{0}
\setcounter{footnote}{0}
\setcounter{mpfootnote}{0}
\setcounter{part}{0}
\setcounter{chapter}{4}
\setcounter{section}{3}
\setcounter{subsection}{0}
\setcounter{subsubsection}{0}
\setcounter{paragraph}{0}
\setcounter{subparagraph}{0}
\setcounter{figure}{5}
\setcounter{table}{5}
\setcounter{parentequation}{0}
\setcounter{Item}{26}
\setcounter{Hfootnote}{0}
\setcounter{bookmark@seq@number}{34}
\setcounter{caption@flags}{0}
\setcounter{ContinuedFloat}{0}
\setcounter{subfigure}{0}
\setcounter{subtable}{0}
\setcounter{lstnumber}{17}
\setcounter{AM@survey}{0}
\setcounter{AlgoLine}{0}
\setcounter{algocfline}{0}
\setcounter{algocfproc}{0}
\setcounter{algocf}{0}
\setcounter{section@level}{1}
\setcounter{lstlisting}{0}
}
