\relax 
\providecommand\hyper@newdestlabel[2]{}
\@writefile{toc}{\contentsline {chapter}{\numberline {1}Introduction}{1}{chapter.1}\protected@file@percent }
\@writefile{lof}{\addvspace {10\p@ }}
\@writefile{lot}{\addvspace {10\p@ }}
\@writefile{loa}{\addvspace {10\p@ }}
\newlabel{Chap: Intro}{{1}{1}{Introduction}{chapter.1}{}}
\@writefile{toc}{\contentsline {section}{\numberline {1.1}Background to the study}{1}{section.1.1}\protected@file@percent }
\newlabel{sec: Intro_Background}{{1.1}{1}{Background to the study}{section.1.1}{}}
\citation{RISCVdfn}
\citation{RISCVdfn}
\@writefile{toc}{\contentsline {section}{\numberline {1.2}Objectives of this Study}{2}{section.1.2}\protected@file@percent }
\newlabel{sec: Intro_Objectives}{{1.2}{2}{Objectives of this Study}{section.1.2}{}}
\@writefile{toc}{\contentsline {subsection}{\numberline {1.2.1}Problems to be Investigated}{2}{subsection.1.2.1}\protected@file@percent }
\newlabel{subsec: Intro_Problems}{{1.2.1}{2}{Problems to be Investigated}{subsection.1.2.1}{}}
\@writefile{toc}{\contentsline {subsection}{\numberline {1.2.2}Purpose of the Study}{2}{subsection.1.2.2}\protected@file@percent }
\newlabel{subsec: Intro_Purpose}{{1.2.2}{2}{Purpose of the Study}{subsection.1.2.2}{}}
\citation{FFT_Fundementals}
\citation{FFT_FPGA}
\@writefile{toc}{\contentsline {section}{\numberline {1.3}Scope and Limitations}{3}{section.1.3}\protected@file@percent }
\newlabel{sec: Intro_Scope}{{1.3}{3}{Scope and Limitations}{section.1.3}{}}
\@writefile{toc}{\contentsline {section}{\numberline {1.4}Plan of development}{4}{section.1.4}\protected@file@percent }
\newlabel{sec: Intro_Plan_of_Dev}{{1.4}{4}{Plan of development}{section.1.4}{}}
\@writefile{lof}{\contentsline {figure}{\numberline {1.1}{\ignorespaces Gannt Chant Showing the Planned Execution of this Investigation \relax }}{5}{figure.caption.5}\protected@file@percent }
\providecommand*\caption@xref[2]{\@setref\relax\@undefined{#1}}
\newlabel{fig: gannt chart}{{1.1}{5}{Gannt Chant Showing the Planned Execution of this Investigation \relax }{figure.caption.5}{}}
\@setckpt{Introduction}{
\setcounter{page}{6}
\setcounter{equation}{0}
\setcounter{enumi}{5}
\setcounter{enumii}{6}
\setcounter{enumiii}{0}
\setcounter{enumiv}{0}
\setcounter{footnote}{0}
\setcounter{mpfootnote}{0}
\setcounter{part}{0}
\setcounter{chapter}{1}
\setcounter{section}{4}
\setcounter{subsection}{0}
\setcounter{subsubsection}{0}
\setcounter{paragraph}{0}
\setcounter{subparagraph}{0}
\setcounter{figure}{1}
\setcounter{table}{0}
\setcounter{parentequation}{0}
\setcounter{Item}{26}
\setcounter{Hfootnote}{0}
\setcounter{bookmark@seq@number}{7}
\setcounter{caption@flags}{0}
\setcounter{ContinuedFloat}{0}
\setcounter{subfigure}{0}
\setcounter{subtable}{0}
\setcounter{lstnumber}{1}
\setcounter{AM@survey}{0}
\setcounter{AlgoLine}{0}
\setcounter{algocfline}{0}
\setcounter{algocfproc}{0}
\setcounter{algocf}{0}
\setcounter{section@level}{1}
\setcounter{lstlisting}{0}
}
