\relax 
\providecommand\hyper@newdestlabel[2]{}
\citation{Waterman2014}
\citation{Porter2018}
\citation{Waterman2014}
\citation{Porter2018}
\@writefile{toc}{\contentsline {chapter}{\numberline {2}Literature Review}{6}{chapter.2}\protected@file@percent }
\@writefile{lof}{\addvspace {10\p@ }}
\@writefile{lot}{\addvspace {10\p@ }}
\@writefile{loa}{\addvspace {10\p@ }}
\newlabel{Chap: Lit_ Review}{{2}{6}{Literature Review}{chapter.2}{}}
\@writefile{toc}{\contentsline {section}{\numberline {2.1}RISC-V}{6}{section.2.1}\protected@file@percent }
\newlabel{Sec: ch2 Riscv}{{2.1}{6}{RISC-V}{section.2.1}{}}
\citation{RISCV_Core}
\citation{RISCV_getting_started}
\citation{Waterman2014}
\citation{Porter2018}
\@writefile{toc}{\contentsline {subsection}{\numberline {2.1.1}RISC-V Cores}{7}{subsection.2.1.1}\protected@file@percent }
\newlabel{subsec: RV_cores}{{2.1.1}{7}{RISC-V Cores}{subsection.2.1.1}{}}
\@writefile{toc}{\contentsline {subsubsection}{RISC-V Naming Conventions}{7}{section*.6}\protected@file@percent }
\newlabel{subsubsec: RV_naming_conventions}{{2.1.1}{7}{RISC-V Naming Conventions}{section*.6}{}}
\citation{Zhang2019}
\citation{Wang2019}
\citation{Porter2019}
\@writefile{lot}{\contentsline {table}{\numberline {2.1}{\ignorespaces Table explaining the naming convention for the RISC-V ISAs\relax }}{8}{table.caption.7}\protected@file@percent }
\newlabel{tbl: RV_naming}{{2.1}{8}{Table explaining the naming convention for the RISC-V ISAs\relax }{table.caption.7}{}}
\@writefile{toc}{\contentsline {subsection}{\numberline {2.1.2}RISC-V on FPGA}{8}{subsection.2.1.2}\protected@file@percent }
\newlabel{subsec: Riscv_on_FPGA}{{2.1.2}{8}{RISC-V on FPGA}{subsection.2.1.2}{}}
\citation{SiFive2020}
\citation{Microchip2020}
\citation{Miura2020}
\citation{RVSoc_gitHub}
\citation{Miura2020}
\@writefile{toc}{\contentsline {subsection}{\numberline {2.1.3}Linux on RISC-V on FPGA}{9}{subsection.2.1.3}\protected@file@percent }
\newlabel{subsec: Linux_on_RV_on_FPGA}{{2.1.3}{9}{Linux on RISC-V on FPGA}{subsection.2.1.3}{}}
\citation{VexRiscv}
\citation{LinunxOnLitex}
\citation{DesginguideFPGAMaxfield2004}
\citation{Krishna2017}
\@writefile{lof}{\contentsline {figure}{\numberline {2.1}{\ignorespaces Logical layout of the RVSoC - a RISC-V core designed for Linux Compatibility\relax }}{10}{figure.caption.8}\protected@file@percent }
\newlabel{fig: RVSoc_layout}{{2.1}{10}{Logical layout of the RVSoC - a RISC-V core designed for Linux Compatibility\relax }{figure.caption.8}{}}
\@writefile{toc}{\contentsline {section}{\numberline {2.2}Field Programmable Gate Arrays - FPGAs}{10}{section.2.2}\protected@file@percent }
\newlabel{Sec: ch2 FPGAs}{{2.2}{10}{Field Programmable Gate Arrays - FPGAs}{section.2.2}{}}
\citation{DesginguideFPGAMaxfield2004}
\citation{winberg}
\@writefile{lof}{\contentsline {figure}{\numberline {2.2}{\ignorespaces Design flow for FPGA programing (Xilinx toolchain)\relax }}{11}{figure.caption.9}\protected@file@percent }
\newlabel{fig: FPGA_flow}{{2.2}{11}{Design flow for FPGA programing (Xilinx toolchain)\relax }{figure.caption.9}{}}
\@writefile{toc}{\contentsline {subsection}{\numberline {2.2.1}Architecture of FPGAs}{11}{subsection.2.2.1}\protected@file@percent }
\newlabel{subsec: FPGA_architecture}{{2.2.1}{11}{Architecture of FPGAs}{subsection.2.2.1}{}}
\@writefile{lof}{\contentsline {figure}{\numberline {2.3}{\ignorespaces Simple structure of an FPGA\relax }}{11}{figure.caption.10}\protected@file@percent }
\newlabel{fig: simple_FPGA}{{2.3}{11}{Simple structure of an FPGA\relax }{figure.caption.10}{}}
\citation{Vanmathi2014}
\citation{Slade2013}
\citation{Garrido2014}
\@writefile{lof}{\contentsline {figure}{\numberline {2.4}{\ignorespaces Figure illustrating all the key components of FPGA architecture\relax }}{12}{figure.caption.11}\protected@file@percent }
\newlabel{fig: detailed_FPGA}{{2.4}{12}{Figure illustrating all the key components of FPGA architecture\relax }{figure.caption.11}{}}
\@writefile{toc}{\contentsline {subsection}{\numberline {2.2.2}Optimisation the FFT on FPGA}{12}{subsection.2.2.2}\protected@file@percent }
\newlabel{subsec: Lit_FFT_FPGA}{{2.2.2}{12}{Optimisation the FFT on FPGA}{subsection.2.2.2}{}}
\citation{Heckbert1995}
\citation{Heckbert1995}
\citation{Cooley1965}
\citation{Cochran1967}
\newlabel{eqn: FPGA_utilisation}{{2.1}{13}{Optimisation the FFT on FPGA}{equation.2.2.1}{}}
\@writefile{toc}{\contentsline {section}{\numberline {2.3}Fast Fourier Transform (FFT)}{13}{section.2.3}\protected@file@percent }
\newlabel{Sec: ch2 FFTs}{{2.3}{13}{Fast Fourier Transform (FFT)}{section.2.3}{}}
\newlabel{eqn: FT}{{2.2}{13}{Fast Fourier Transform (FFT)}{equation.2.3.2}{}}
\newlabel{eqn: dft}{{2.3}{13}{Fast Fourier Transform (FFT)}{equation.2.3.3}{}}
\citation{Ganapathiraju1999}
\citation{Bekele2016}
\citation{Ganapathiraju1999}
\@writefile{lof}{\contentsline {figure}{\numberline {2.5}{\ignorespaces Transformation From Time to Frequency Domains Using the (Fast) Fourier Transform\relax }}{14}{figure.caption.12}\protected@file@percent }
\newlabel{fig: matlab fft}{{2.5}{14}{Transformation From Time to Frequency Domains Using the (Fast) Fourier Transform\relax }{figure.caption.12}{}}
\@writefile{toc}{\contentsline {subsection}{\numberline {2.3.1}Algorithms to Calculate the FFT}{14}{subsection.2.3.1}\protected@file@percent }
\newlabel{subsec: FFT_Algorithms}{{2.3.1}{14}{Algorithms to Calculate the FFT}{subsection.2.3.1}{}}
\@writefile{toc}{\contentsline {subsubsection}{Cooley-Tukey Algorithm (Radix-2)}{14}{section*.13}\protected@file@percent }
\newlabel{subsubsec: cooley_tukey_algorithm}{{2.3.1}{14}{Cooley-Tukey Algorithm (Radix-2)}{section*.13}{}}
\citation{Heckbert1995}
\citation{Ganapathiraju1999}
\@writefile{toc}{\contentsline {subsubsection}{Decimation-in-Time (DIT), Decimation-in-Frequency (DIF) and Decimation-in-Time-Frequency (DITF) Algorithms}{15}{section*.14}\protected@file@percent }
\newlabel{subsubsec: DIT_algorithm}{{2.3.1}{15}{Decimation-in-Time (DIT), Decimation-in-Frequency (DIF) and Decimation-in-Time-Frequency (DITF) Algorithms}{section*.14}{}}
\@writefile{lof}{\contentsline {figure}{\numberline {2.6}{\ignorespaces Butterfly computation of two complex numbers $p$ and $q$ with complex weighting $\alpha $ \relax }}{15}{figure.caption.15}\protected@file@percent }
\newlabel{fig: butterfly_computation}{{2.6}{15}{Butterfly computation of two complex numbers $p$ and $q$ with complex weighting $\alpha $ \relax }{figure.caption.15}{}}
\newlabel{eqn: DIT}{{2.4}{15}{Decimation-in-Time (DIT), Decimation-in-Frequency (DIF) and Decimation-in-Time-Frequency (DITF) Algorithms}{equation.2.3.4}{}}
\newlabel{eqn: DIF}{{2.5}{15}{Decimation-in-Time (DIT), Decimation-in-Frequency (DIF) and Decimation-in-Time-Frequency (DITF) Algorithms}{equation.2.3.5}{}}
\citation{DouglasON}
\citation{Kumar2019}
\citation{Kumar2019}
\citation{DouglasON}
\citation{Guo1998}
\@writefile{toc}{\contentsline {subsubsection}{Split-Radix FFT (SRFFT)}{16}{section*.16}\protected@file@percent }
\newlabel{subsubsec: SRFFT_algorithm}{{2.3.1}{16}{Split-Radix FFT (SRFFT)}{section*.16}{}}
\newlabel{eqn: SRFFT}{{2.6}{16}{Split-Radix FFT (SRFFT)}{equation.2.3.6}{}}
\@writefile{toc}{\contentsline {subsubsection}{Quick Fourier Transform (QFT)}{16}{section*.17}\protected@file@percent }
\newlabel{subsubsec: qft_algorithm}{{2.3.1}{16}{Quick Fourier Transform (QFT)}{section*.17}{}}
\newlabel{eqn: QFT}{{2.7}{16}{Quick Fourier Transform (QFT)}{equation.2.3.7}{}}
\citation{Guo1998}
\citation{Kumar2019}
\citation{Ganapathiraju1999}
\citation{Rao2010}
\@writefile{toc}{\contentsline {subsubsection}{Fast Hartley Transform (FHT)}{17}{section*.18}\protected@file@percent }
\newlabel{subsubsec: FHT_algorithm}{{2.3.1}{17}{Fast Hartley Transform (FHT)}{section*.18}{}}
\newlabel{eqn: DHT}{{2.8}{17}{Fast Hartley Transform (FHT)}{equation.2.3.8}{}}
\@writefile{toc}{\contentsline {subsubsection}{Comparison FFT algorithms}{17}{section*.19}\protected@file@percent }
\newlabel{subsubsec: optimisation_fft_sw}{{2.3.1}{17}{Comparison FFT algorithms}{section*.19}{}}
\@writefile{lot}{\contentsline {table}{\numberline {2.2}{\ignorespaces Computation time (in microseconds) of various algorithms in computing various orders of FFT\relax }}{17}{table.caption.20}\protected@file@percent }
\newlabel{tbl: comaparison FFT computation}{{2.2}{17}{Computation time (in microseconds) of various algorithms in computing various orders of FFT\relax }{table.caption.20}{}}
\citation{Xilinx}
\citation{intelFFT}
\citation{Rao2010}
\@writefile{lot}{\contentsline {table}{\numberline {2.3}{\ignorespaces Amount of memory used (Bytes) in computing 1024-point FFT \relax }}{18}{table.caption.21}\protected@file@percent }
\newlabel{tbl: comparison_mem_usage_fft_algo}{{2.3}{18}{Amount of memory used (Bytes) in computing 1024-point FFT \relax }{table.caption.21}{}}
\@writefile{toc}{\contentsline {subsection}{\numberline {2.3.2}Applications of the FFT}{18}{subsection.2.3.2}\protected@file@percent }
\newlabel{subsec: apps_FFT}{{2.3.2}{18}{Applications of the FFT}{subsection.2.3.2}{}}
\@setckpt{Literature}{
\setcounter{page}{19}
\setcounter{equation}{8}
\setcounter{enumi}{5}
\setcounter{enumii}{6}
\setcounter{enumiii}{0}
\setcounter{enumiv}{0}
\setcounter{footnote}{0}
\setcounter{mpfootnote}{0}
\setcounter{part}{0}
\setcounter{chapter}{2}
\setcounter{section}{3}
\setcounter{subsection}{2}
\setcounter{subsubsection}{0}
\setcounter{paragraph}{0}
\setcounter{subparagraph}{0}
\setcounter{figure}{6}
\setcounter{table}{3}
\setcounter{parentequation}{0}
\setcounter{Item}{26}
\setcounter{Hfootnote}{0}
\setcounter{bookmark@seq@number}{18}
\setcounter{caption@flags}{0}
\setcounter{ContinuedFloat}{0}
\setcounter{subfigure}{0}
\setcounter{subtable}{0}
\setcounter{lstnumber}{17}
\setcounter{AM@survey}{0}
\setcounter{AlgoLine}{0}
\setcounter{algocfline}{0}
\setcounter{algocfproc}{0}
\setcounter{algocf}{0}
\setcounter{section@level}{2}
\setcounter{lstlisting}{0}
}
