\relax 
\providecommand\hyper@newdestlabel[2]{}
\@writefile{toc}{\contentsline {chapter}{\numberline {3}Methodology}{19}{chapter.3}\protected@file@percent }
\@writefile{lof}{\addvspace {10\p@ }}
\@writefile{lot}{\addvspace {10\p@ }}
\@writefile{loa}{\addvspace {10\p@ }}
\@writefile{toc}{\contentsline {section}{\numberline {3.1}Project Plan}{19}{section.3.1}\protected@file@percent }
\newlabel{sec:_meth_Proj_plan}{{3.1}{19}{Project Plan}{section.3.1}{}}
\@writefile{lof}{\contentsline {figure}{\numberline {3.1}{\ignorespaces Flow Diagram showing the Project Plan\relax }}{19}{figure.caption.22}\protected@file@percent }
\newlabel{fig: proj_plan}{{3.1}{19}{Flow Diagram showing the Project Plan\relax }{figure.caption.22}{}}
\citation{Munassar2010}
\@writefile{toc}{\contentsline {section}{\numberline {3.2}Part 1: Planning and Research}{20}{section.3.2}\protected@file@percent }
\newlabel{sec: meth part 1}{{3.2}{20}{Part 1: Planning and Research}{section.3.2}{}}
\@writefile{toc}{\contentsline {section}{\numberline {3.3}Part 2: Literature Review}{20}{section.3.3}\protected@file@percent }
\newlabel{sec: meth part 2}{{3.3}{20}{Part 2: Literature Review}{section.3.3}{}}
\@writefile{toc}{\contentsline {section}{\numberline {3.4}Part 3: Experimentation}{20}{section.3.4}\protected@file@percent }
\newlabel{sec: meth part 3}{{3.4}{20}{Part 3: Experimentation}{section.3.4}{}}
\@writefile{toc}{\contentsline {subsection}{\numberline {3.4.1}Part 3.1: Planning and research}{20}{subsection.3.4.1}\protected@file@percent }
\citation{Munassar2010}
\citation{Munassar2010}
\citation{Munassar2010}
\citation{Munassar2010}
\@writefile{lof}{\contentsline {figure}{\numberline {3.2}{\ignorespaces Models followed in this project\relax }}{21}{figure.caption.23}\protected@file@percent }
\newlabel{fig: models}{{3.2}{21}{Models followed in this project\relax }{figure.caption.23}{}}
\@writefile{toc}{\contentsline {subsection}{\numberline {3.4.2}Part 3.2: Design, Implementation and Evaluation}{21}{subsection.3.4.2}\protected@file@percent }
\@writefile{toc}{\contentsline {section}{\numberline {3.5}Part 3.3 and Part 4: Collection and Discussion of Results}{21}{section.3.5}\protected@file@percent }
\newlabel{sec: meth part 4}{{3.5}{21}{Part 3.3 and Part 4: Collection and Discussion of Results}{section.3.5}{}}
\@writefile{toc}{\contentsline {section}{\numberline {3.6}Part 5 and Part 6: Conclusions and Recommendations }{22}{section.3.6}\protected@file@percent }
\newlabel{sec: meth part 5}{{3.6}{22}{Part 5 and Part 6: Conclusions and Recommendations}{section.3.6}{}}
\@setckpt{Methodology}{
\setcounter{page}{23}
\setcounter{equation}{0}
\setcounter{enumi}{5}
\setcounter{enumii}{6}
\setcounter{enumiii}{0}
\setcounter{enumiv}{0}
\setcounter{footnote}{0}
\setcounter{mpfootnote}{0}
\setcounter{part}{0}
\setcounter{chapter}{3}
\setcounter{section}{6}
\setcounter{subsection}{0}
\setcounter{subsubsection}{0}
\setcounter{paragraph}{0}
\setcounter{subparagraph}{0}
\setcounter{figure}{2}
\setcounter{table}{0}
\setcounter{parentequation}{0}
\setcounter{Item}{26}
\setcounter{Hfootnote}{0}
\setcounter{bookmark@seq@number}{27}
\setcounter{caption@flags}{0}
\setcounter{ContinuedFloat}{0}
\setcounter{subfigure}{2}
\setcounter{subtable}{0}
\setcounter{lstnumber}{17}
\setcounter{AM@survey}{0}
\setcounter{AlgoLine}{0}
\setcounter{algocfline}{0}
\setcounter{algocfproc}{0}
\setcounter{algocf}{0}
\setcounter{section@level}{1}
\setcounter{lstlisting}{0}
}
