\relax 
\providecommand\hyper@newdestlabel[2]{}
\providecommand\HyperFirstAtBeginDocument{\AtBeginDocument}
\HyperFirstAtBeginDocument{\ifx\hyper@anchor\@undefined
\global\let\oldcontentsline\contentsline
\gdef\contentsline#1#2#3#4{\oldcontentsline{#1}{#2}{#3}}
\global\let\oldnewlabel\newlabel
\gdef\newlabel#1#2{\newlabelxx{#1}#2}
\gdef\newlabelxx#1#2#3#4#5#6{\oldnewlabel{#1}{{#2}{#3}}}
\AtEndDocument{\ifx\hyper@anchor\@undefined
\let\contentsline\oldcontentsline
\let\newlabel\oldnewlabel
\fi}
\fi}
\global\let\hyper@last\relax 
\gdef\HyperFirstAtBeginDocument#1{#1}
\providecommand\HyField@AuxAddToFields[1]{}
\providecommand\HyField@AuxAddToCoFields[2]{}
\providecommand \oddpage@label [2]{}
\citation{max_amp_adafruit}
\bibstyle{ieeetr}
\@input{Introduction.aux}
\@input{Literature.aux}
\@input{Methodology.aux}
\@input{High_Level_Design.aux}
\@input{Detailed_Design.aux}
\@input{Results.aux}
\@input{Discussion.aux}
\@input{Conclusions.aux}
\@input{Recommendations.aux}
\@input{References.aux}
\@input{appendixa.aux}
\@input{appendixb.aux}
\newlabel{LastPage}{{}{85}{}{page.85}{}}
\xdef\lastpage@lastpage{85}
\xdef\lastpage@lastpageHy{85}
