\addvspace {10\p@ }
\contentsline {figure}{\numberline {1.1}{\ignorespaces Gannt Chant Showing the Planned Execution of this Investigation \relax }}{5}{figure.caption.5}% 
\addvspace {10\p@ }
\contentsline {figure}{\numberline {2.1}{\ignorespaces Logical layout of the RVSoC - a RISC-V core designed for Linux Compatibility\relax }}{10}{figure.caption.8}% 
\contentsline {figure}{\numberline {2.2}{\ignorespaces Design flow for FPGA programing (Xilinx toolchain)\relax }}{11}{figure.caption.9}% 
\contentsline {figure}{\numberline {2.3}{\ignorespaces Simple structure of an FPGA\relax }}{11}{figure.caption.10}% 
\contentsline {figure}{\numberline {2.4}{\ignorespaces Figure illustrating all the key components of FPGA architecture\relax }}{12}{figure.caption.11}% 
\contentsline {figure}{\numberline {2.5}{\ignorespaces Transformation From Time to Frequency Domains Using the (Fast) Fourier Transform\relax }}{14}{figure.caption.12}% 
\contentsline {figure}{\numberline {2.6}{\ignorespaces Butterfly computation of two complex numbers $p$ and $q$ with complex weighting $\alpha $ \relax }}{15}{figure.caption.15}% 
\addvspace {10\p@ }
\contentsline {figure}{\numberline {3.1}{\ignorespaces Flow Diagram showing the Project Plan\relax }}{19}{figure.caption.22}% 
\contentsline {figure}{\numberline {3.2}{\ignorespaces Models followed in this project\relax }}{21}{figure.caption.23}% 
\addvspace {10\p@ }
\contentsline {figure}{\numberline {4.1}{\ignorespaces Interactions between the subsystems used in this project\relax }}{23}{figure.caption.24}% 
\contentsline {figure}{\numberline {4.2}{\ignorespaces The DE0- Nano Board\relax }}{24}{figure.caption.25}% 
\contentsline {figure}{\numberline {4.3}{\ignorespaces Schematic of the ADC128S022- the on board ADC\relax }}{25}{figure.caption.26}% 
\contentsline {figure}{\numberline {4.4}{\ignorespaces The mic-amp IC \cite {max_amp_adafruit}\relax }}{25}{figure.caption.28}% 
\contentsline {figure}{\numberline {4.5}{\ignorespaces Interactions Between the Subsystems for the RISC-V Emulation\relax }}{26}{figure.caption.29}% 
\addvspace {10\p@ }
\contentsline {figure}{\numberline {5.1}{\ignorespaces Generating a 1kHz sine wave in audacity\relax }}{29}{figure.caption.34}% 
\contentsline {figure}{\numberline {5.2}{\ignorespaces Experiment 1 setup\relax }}{30}{figure.caption.36}% 
\contentsline {figure}{\numberline {5.3}{\ignorespaces Setup used for Experiments 2 - 6\relax }}{31}{figure.caption.39}% 
\contentsline {figure}{\numberline {5.4}{\ignorespaces Experimental Setup for Implementing an FFT on the Audio Stream\relax }}{33}{figure.caption.43}% 
\contentsline {figure}{\numberline {5.5}{\ignorespaces Various important parts of a wave file\relax }}{36}{figure.caption.46}% 
\addvspace {10\p@ }
\contentsline {figure}{\numberline {6.1}{\ignorespaces 1kHz signal read by the ADC\relax }}{42}{figure.caption.49}% 
\contentsline {figure}{\numberline {6.2}{\ignorespaces 6.25kHz signal input provided through channel 0 provided by audio speaker\relax }}{43}{figure.caption.50}% 
\contentsline {figure}{\numberline {6.3}{\ignorespaces Input signal centred about the x-axis\relax }}{43}{figure.caption.51}% 
\contentsline {figure}{\numberline {6.4}{\ignorespaces 1024 -point FFT taken of 6.25kHz signal centred about x-axis\relax }}{43}{figure.caption.52}% 
\contentsline {figure}{\numberline {6.5}{\ignorespaces Setting used to generate a 1kHz sine wave\relax }}{45}{figure.caption.55}% 
\contentsline {figure}{\numberline {6.6}{\ignorespaces Experiment 1 Result of Reading a Wave file\relax }}{46}{figure.caption.56}% 
\contentsline {figure}{\numberline {6.7}{\ignorespaces Input data from experiment 1 plotted using Excel\relax }}{46}{figure.caption.57}% 
\contentsline {figure}{\numberline {6.8}{\ignorespaces FFT applied on the 1 kHz input wave signal\relax }}{46}{figure.caption.58}% 
\contentsline {figure}{\numberline {6.9}{\ignorespaces iFFT applied on the output of the FFT \relax }}{47}{figure.caption.59}% 
\contentsline {figure}{\numberline {6.10}{\ignorespaces Qemu Successfully Running Linux on RISC-V\relax }}{47}{figure.caption.60}% 
\contentsline {figure}{\numberline {6.11}{\ignorespaces \textit {HelloWorld} File is Successfully Compiled and Sent to RISC-V Emulation\relax }}{48}{figure.caption.61}% 
\contentsline {figure}{\numberline {6.12}{\ignorespaces \textit {HelloWorld} Successfully Running in Qemu\relax }}{48}{figure.caption.62}% 
\contentsline {figure}{\numberline {6.13}{\ignorespaces Input Audio Signal and Cross-compiled FFT Code Being Copied to Qemu\relax }}{49}{figure.caption.64}% 
\contentsline {figure}{\numberline {6.14}{\ignorespaces Implementing the FFT in Qemu\relax }}{49}{figure.caption.65}% 
\contentsline {figure}{\numberline {6.15}{\ignorespaces 6.25kHz Input Audio Signal to the FFT\relax }}{49}{figure.caption.66}% 
\contentsline {figure}{\numberline {6.16}{\ignorespaces FFT Applied on 6.25kHz Input Signal on Linux on RISC-V\relax }}{49}{figure.caption.67}% 
\contentsline {figure}{\numberline {6.17}{\ignorespaces Integer Cross-compiled FFT Code Being Copied to Qemu\relax }}{50}{figure.caption.69}% 
\contentsline {figure}{\numberline {6.18}{\ignorespaces Implementing the integer FFT in Qemu\relax }}{50}{figure.caption.70}% 
\contentsline {figure}{\numberline {6.19}{\ignorespaces Integer FFT Applied on 6.25kHz Input Signal on Linux on RISC-V\relax }}{51}{figure.caption.71}% 
\contentsline {figure}{\numberline {6.20}{\ignorespaces Simulation of Linux running on Vexriscv core\relax }}{51}{figure.caption.72}% 
\contentsline {figure}{\numberline {6.21}{\ignorespaces Successful compilation of the Vexriscv Core using Quartus\relax }}{52}{figure.caption.73}% 
\contentsline {figure}{\numberline {6.22}{\ignorespaces Vexriscv core successfully programmed on board using Quartus\relax }}{52}{figure.caption.74}% 
\contentsline {figure}{\numberline {6.23}{\ignorespaces Instruction to load Linux onto the Vexriscv image on FPGA\relax }}{52}{figure.caption.75}% 
\contentsline {figure}{\numberline {6.24}{\ignorespaces Time taken to execute the FFT on Linux, on RISC-V in Qemu\relax }}{53}{figure.caption.77}% 
\addvspace {10\p@ }
\addvspace {10\p@ }
\addvspace {10\p@ }
\addvspace {10\p@ }
\contentsline {figure}{\numberline {A.1}{\ignorespaces Bit swapping and showing reduction of computation. \textquotedblleft .\textquotedblright Indicates 0. Sparse matrices are computationally lighter than dense matrices\relax }}{68}{figure.caption.85}% 
\contentsline {figure}{\numberline {A.2}{\ignorespaces Simple setup used to test the Mic-amp system\relax }}{69}{figure.caption.86}% 
\contentsline {figure}{\numberline {A.3}{\ignorespaces Signal Tap used to measure the ADC output for Experiment 2\relax }}{69}{figure.caption.87}% 
\contentsline {figure}{\numberline {A.4}{\ignorespaces Signal Tap used to measure important signals for Experiment 4\relax }}{69}{figure.caption.88}% 
\contentsline {figure}{\numberline {A.5}{\ignorespaces 6.25kHz Signal Generated using Audacity\relax }}{69}{figure.caption.89}% 
\contentsline {figure}{\numberline {A.6}{\ignorespaces Pin Layout for Vexriscv Core pg 1\relax }}{70}{figure.caption.90}% 
\contentsline {figure}{\numberline {A.7}{\ignorespaces Pin Layout for Vexriscv Core pg 2\relax }}{71}{figure.caption.91}% 
\contentsline {figure}{\numberline {A.8}{\ignorespaces Pin Layout for Vexriscv Core pg 2\relax }}{72}{figure.caption.92}% 
\addvspace {10\p@ }
