\relax 
\providecommand\hyper@newdestlabel[2]{}
\bibdata{Bibliography}
\bibcite{max_amp_adafruit}{1}
\bibcite{RISCVdfn}{2}
\bibcite{FFT_Fundementals}{3}
\bibcite{FFT_FPGA}{4}
\bibcite{Waterman2014}{5}
\bibcite{Porter2018}{6}
\bibcite{RISCV_Core}{7}
\bibcite{RISCV_getting_started}{8}
\bibcite{Zhang2019}{9}
\bibcite{Wang2019}{10}
\bibcite{Porter2019}{11}
\bibcite{SiFive2020}{12}
\bibcite{Microchip2020}{13}
\bibcite{Miura2020}{14}
\bibcite{RVSoc_gitHub}{15}
\bibcite{VexRiscv}{16}
\bibcite{LinunxOnLitex}{17}
\bibcite{DesginguideFPGAMaxfield2004}{18}
\bibcite{Krishna2017}{19}
\bibcite{winberg}{20}
\bibcite{Vanmathi2014}{21}
\bibcite{Slade2013}{22}
\bibcite{Garrido2014}{23}
\bibcite{Heckbert1995}{24}
\bibcite{Cooley1965}{25}
\bibcite{Cochran1967}{26}
\bibcite{Ganapathiraju1999}{27}
\bibcite{Bekele2016}{28}
\bibcite{DouglasON}{29}
\bibcite{Kumar2019}{30}
\bibcite{Guo1998}{31}
\bibcite{Rao2010}{32}
\bibcite{Xilinx}{33}
\bibcite{intelFFT}{34}
\bibcite{Munassar2010}{35}
\bibcite{Altera2012}{36}
\bibcite{ADCInstruments2013}{37}
\bibcite{MAX9814}{38}
\bibcite{qemu}{39}
\bibcite{Intel2017ADC}{40}
\bibcite{Intel2017FFTCore}{41}
\bibcite{wave}{42}
\bibcite{ffmpeg}{43}
\bibcite{lsbsndfile}{44}
\bibcite{read_wave}{45}
\bibcite{FFTW05}{46}
\bibcite{KISSFFT}{47}
\bibcite{fft_code}{48}
\bibcite{debian}{49}
\bibcite{newRVSOC}{50}
\@setckpt{References}{
\setcounter{page}{68}
\setcounter{equation}{0}
\setcounter{enumi}{8}
\setcounter{enumii}{6}
\setcounter{enumiii}{0}
\setcounter{enumiv}{50}
\setcounter{footnote}{0}
\setcounter{mpfootnote}{0}
\setcounter{part}{0}
\setcounter{chapter}{9}
\setcounter{section}{0}
\setcounter{subsection}{0}
\setcounter{subsubsection}{0}
\setcounter{paragraph}{0}
\setcounter{subparagraph}{0}
\setcounter{figure}{0}
\setcounter{table}{0}
\setcounter{parentequation}{0}
\setcounter{Item}{44}
\setcounter{Hfootnote}{0}
\setcounter{bookmark@seq@number}{78}
\setcounter{caption@flags}{0}
\setcounter{ContinuedFloat}{0}
\setcounter{subfigure}{0}
\setcounter{subtable}{0}
\setcounter{lstnumber}{17}
\setcounter{AM@survey}{0}
\setcounter{AlgoLine}{0}
\setcounter{algocfline}{0}
\setcounter{algocfproc}{0}
\setcounter{algocf}{0}
\setcounter{section@level}{1}
\setcounter{lstlisting}{0}
}
