\relax 
\providecommand\hyper@newdestlabel[2]{}
\@writefile{toc}{\contentsline {chapter}{\numberline {6}Results}{41}{chapter.6}\protected@file@percent }
\@writefile{lof}{\addvspace {10\p@ }}
\@writefile{lot}{\addvspace {10\p@ }}
\@writefile{loa}{\addvspace {10\p@ }}
\newlabel{Chap: Results}{{6}{41}{Results}{chapter.6}{}}
\@writefile{toc}{\contentsline {section}{\numberline {6.1}HDL Results}{41}{section.6.1}\protected@file@percent }
\newlabel{sec: HDL Results}{{6.1}{41}{HDL Results}{section.6.1}{}}
\@writefile{toc}{\contentsline {subsection}{\numberline {6.1.1}Experiment 1 - HS1- Mic-amp System - Results}{41}{subsection.6.1.1}\protected@file@percent }
\newlabel{subsec: experiment HL 1 results}{{6.1.1}{41}{Experiment 1 - HS1- Mic-amp System - Results}{subsection.6.1.1}{}}
\@writefile{lot}{\contentsline {table}{\numberline {6.1}{\ignorespaces Results from HDL Experiment 1 \relax }}{41}{table.caption.48}\protected@file@percent }
\newlabel{tbl: HDL experiment 1 results}{{6.1}{41}{Results from HDL Experiment 1 \relax }{table.caption.48}{}}
\@writefile{toc}{\contentsline {subsection}{\numberline {6.1.2}Experiment 2 - HS2- ADC System - Results}{42}{subsection.6.1.2}\protected@file@percent }
\newlabel{subsec: experiment HL 2 results}{{6.1.2}{42}{Experiment 2 - HS2- ADC System - Results}{subsection.6.1.2}{}}
\@writefile{lof}{\contentsline {figure}{\numberline {6.1}{\ignorespaces 1kHz signal read by the ADC\relax }}{42}{figure.caption.49}\protected@file@percent }
\newlabel{fig: 1khz}{{6.1}{42}{1kHz signal read by the ADC\relax }{figure.caption.49}{}}
\@writefile{toc}{\contentsline {subsection}{\numberline {6.1.3}Experiments 3 \& 4- HS4 \& HS4- FFT Implementation - Results}{42}{subsection.6.1.3}\protected@file@percent }
\newlabel{subsec: experiment HL 34 results}{{6.1.3}{42}{Experiments 3 \& 4- HS4 \& HS4- FFT Implementation - Results}{subsection.6.1.3}{}}
\@writefile{lof}{\contentsline {figure}{\numberline {6.2}{\ignorespaces 6.25kHz signal input provided through channel 0 provided by audio speaker\relax }}{43}{figure.caption.50}\protected@file@percent }
\newlabel{fig: 6250 signal}{{6.2}{43}{6.25kHz signal input provided through channel 0 provided by audio speaker\relax }{figure.caption.50}{}}
\@writefile{lof}{\contentsline {figure}{\numberline {6.3}{\ignorespaces Input signal centred about the x-axis\relax }}{43}{figure.caption.51}\protected@file@percent }
\newlabel{fig: 6250 offset}{{6.3}{43}{Input signal centred about the x-axis\relax }{figure.caption.51}{}}
\@writefile{lof}{\contentsline {figure}{\numberline {6.4}{\ignorespaces 1024 -point FFT taken of 6.25kHz signal centred about x-axis\relax }}{43}{figure.caption.52}\protected@file@percent }
\newlabel{fig: 6250 fft}{{6.4}{43}{1024 -point FFT taken of 6.25kHz signal centred about x-axis\relax }{figure.caption.52}{}}
\newlabel{eqn: bin_size}{{6.1}{43}{Experiments 3 \& 4- HS4 \& HS4- FFT Implementation - Results}{equation.6.1.1}{}}
\@writefile{toc}{\contentsline {subsection}{\numberline {6.1.4}Experiments 5 - HS5 - Power Consumption - Results}{44}{subsection.6.1.4}\protected@file@percent }
\newlabel{subsec: experiment HL 5 results}{{6.1.4}{44}{Experiments 5 - HS5 - Power Consumption - Results}{subsection.6.1.4}{}}
\@writefile{lot}{\contentsline {table}{\numberline {6.2}{\ignorespaces Results from implementing FFT as per Experiment 5\relax }}{44}{table.caption.53}\protected@file@percent }
\newlabel{tbl: HDL usage results}{{6.2}{44}{Results from implementing FFT as per Experiment 5\relax }{table.caption.53}{}}
\@writefile{toc}{\contentsline {subsection}{\numberline {6.1.5}Experiments 6 - HS6 - Speed and Easy of Implementation - Results}{44}{subsection.6.1.5}\protected@file@percent }
\newlabel{subsec: experiment HL 6 results}{{6.1.5}{44}{Experiments 6 - HS6 - Speed and Easy of Implementation - Results}{subsection.6.1.5}{}}
\@writefile{lot}{\contentsline {table}{\numberline {6.3}{\ignorespaces Tabulation of the Ease of Implementing the FFT on the FPGA\relax }}{45}{table.caption.54}\protected@file@percent }
\newlabel{tbl: results ease of implement}{{6.3}{45}{Tabulation of the Ease of Implementing the FFT on the FPGA\relax }{table.caption.54}{}}
\@writefile{toc}{\contentsline {section}{\numberline {6.2}RISC-V Results}{45}{section.6.2}\protected@file@percent }
\newlabel{sec: RV Results}{{6.2}{45}{RISC-V Results}{section.6.2}{}}
\@writefile{toc}{\contentsline {subsection}{\numberline {6.2.1}Experiment 1 - RS1- FFT in C - Results}{45}{subsection.6.2.1}\protected@file@percent }
\newlabel{subsec: experiment RV 1 results}{{6.2.1}{45}{Experiment 1 - RS1- FFT in C - Results}{subsection.6.2.1}{}}
\@writefile{lof}{\contentsline {figure}{\numberline {6.5}{\ignorespaces Setting used to generate a 1kHz sine wave\relax }}{45}{figure.caption.55}\protected@file@percent }
\newlabel{fig: input_1}{{6.5}{45}{Setting used to generate a 1kHz sine wave\relax }{figure.caption.55}{}}
\@writefile{lof}{\contentsline {figure}{\numberline {6.6}{\ignorespaces Experiment 1 Result of Reading a Wave file\relax }}{46}{figure.caption.56}\protected@file@percent }
\newlabel{fig: experiment 1 RV}{{6.6}{46}{Experiment 1 Result of Reading a Wave file\relax }{figure.caption.56}{}}
\@writefile{lof}{\contentsline {figure}{\numberline {6.7}{\ignorespaces Input data from experiment 1 plotted using Excel\relax }}{46}{figure.caption.57}\protected@file@percent }
\newlabel{fig: input_1_wave}{{6.7}{46}{Input data from experiment 1 plotted using Excel\relax }{figure.caption.57}{}}
\@writefile{lof}{\contentsline {figure}{\numberline {6.8}{\ignorespaces FFT applied on the 1 kHz input wave signal\relax }}{46}{figure.caption.58}\protected@file@percent }
\newlabel{fig: fft_1_rv}{{6.8}{46}{FFT applied on the 1 kHz input wave signal\relax }{figure.caption.58}{}}
\@writefile{lof}{\contentsline {figure}{\numberline {6.9}{\ignorespaces iFFT applied on the output of the FFT \relax }}{47}{figure.caption.59}\protected@file@percent }
\newlabel{fig: ifft_1_rv}{{6.9}{47}{iFFT applied on the output of the FFT \relax }{figure.caption.59}{}}
\@writefile{toc}{\contentsline {subsection}{\numberline {6.2.2}Experiment 2 - RS2 - Running Qemu - Results}{47}{subsection.6.2.2}\protected@file@percent }
\newlabel{subsec: experiment RV 2 results}{{6.2.2}{47}{Experiment 2 - RS2 - Running Qemu - Results}{subsection.6.2.2}{}}
\@writefile{lof}{\contentsline {figure}{\numberline {6.10}{\ignorespaces Qemu Successfully Running Linux on RISC-V\relax }}{47}{figure.caption.60}\protected@file@percent }
\newlabel{fig: qemu_running}{{6.10}{47}{Qemu Successfully Running Linux on RISC-V\relax }{figure.caption.60}{}}
\@writefile{lof}{\contentsline {figure}{\numberline {6.11}{\ignorespaces \textit  {HelloWorld} File is Successfully Compiled and Sent to RISC-V Emulation\relax }}{48}{figure.caption.61}\protected@file@percent }
\newlabel{fig: qemu 2}{{6.11}{48}{\textit {HelloWorld} File is Successfully Compiled and Sent to RISC-V Emulation\relax }{figure.caption.61}{}}
\@writefile{lof}{\contentsline {figure}{\numberline {6.12}{\ignorespaces \textit  {HelloWorld} Successfully Running in Qemu\relax }}{48}{figure.caption.62}\protected@file@percent }
\newlabel{fig: hello world rv}{{6.12}{48}{\textit {HelloWorld} Successfully Running in Qemu\relax }{figure.caption.62}{}}
\@writefile{toc}{\contentsline {subsection}{\numberline {6.2.3}Experiment 3 - RS3 \& RS4 - Implementing FFT in Linux on Emulated RISC-V core - Results}{48}{subsection.6.2.3}\protected@file@percent }
\newlabel{subsec: experiment RV 3 results}{{6.2.3}{48}{Experiment 3 - RS3 \& RS4 - Implementing FFT in Linux on Emulated RISC-V core - Results}{subsection.6.2.3}{}}
\@writefile{toc}{\contentsline {subsubsection}{Floating Point Implementation}{48}{section*.63}\protected@file@percent }
\@writefile{lof}{\contentsline {figure}{\numberline {6.13}{\ignorespaces Input Audio Signal and Cross-compiled FFT Code Being Copied to Qemu\relax }}{49}{figure.caption.64}\protected@file@percent }
\newlabel{fig: experiment 3 float 0}{{6.13}{49}{Input Audio Signal and Cross-compiled FFT Code Being Copied to Qemu\relax }{figure.caption.64}{}}
\@writefile{lof}{\contentsline {figure}{\numberline {6.14}{\ignorespaces Implementing the FFT in Qemu\relax }}{49}{figure.caption.65}\protected@file@percent }
\newlabel{fig: experiment 3 float 1}{{6.14}{49}{Implementing the FFT in Qemu\relax }{figure.caption.65}{}}
\@writefile{lof}{\contentsline {figure}{\numberline {6.15}{\ignorespaces 6.25kHz Input Audio Signal to the FFT\relax }}{49}{figure.caption.66}\protected@file@percent }
\newlabel{fig: experiment 3 float 2 input}{{6.15}{49}{6.25kHz Input Audio Signal to the FFT\relax }{figure.caption.66}{}}
\@writefile{lof}{\contentsline {figure}{\numberline {6.16}{\ignorespaces FFT Applied on 6.25kHz Input Signal on Linux on RISC-V\relax }}{49}{figure.caption.67}\protected@file@percent }
\newlabel{fig: experiment 3 float 3 fft}{{6.16}{49}{FFT Applied on 6.25kHz Input Signal on Linux on RISC-V\relax }{figure.caption.67}{}}
\@writefile{toc}{\contentsline {subsubsection}{Integer FFT Implementation}{50}{section*.68}\protected@file@percent }
\@writefile{lof}{\contentsline {figure}{\numberline {6.17}{\ignorespaces Integer Cross-compiled FFT Code Being Copied to Qemu\relax }}{50}{figure.caption.69}\protected@file@percent }
\newlabel{fig: experiment 3 int 1}{{6.17}{50}{Integer Cross-compiled FFT Code Being Copied to Qemu\relax }{figure.caption.69}{}}
\@writefile{lof}{\contentsline {figure}{\numberline {6.18}{\ignorespaces Implementing the integer FFT in Qemu\relax }}{50}{figure.caption.70}\protected@file@percent }
\newlabel{fig: experiment 3 int 2}{{6.18}{50}{Implementing the integer FFT in Qemu\relax }{figure.caption.70}{}}
\@writefile{lof}{\contentsline {figure}{\numberline {6.19}{\ignorespaces Integer FFT Applied on 6.25kHz Input Signal on Linux on RISC-V\relax }}{51}{figure.caption.71}\protected@file@percent }
\newlabel{fig: experiment 3: int fft}{{6.19}{51}{Integer FFT Applied on 6.25kHz Input Signal on Linux on RISC-V\relax }{figure.caption.71}{}}
\@writefile{toc}{\contentsline {subsection}{\numberline {6.2.4}Experiment 4 - RS5 \& RS6 - Running Vexriscv and Linux on FPGA - Results}{51}{subsection.6.2.4}\protected@file@percent }
\newlabel{subsec: experiment RV 4 results}{{6.2.4}{51}{Experiment 4 - RS5 \& RS6 - Running Vexriscv and Linux on FPGA - Results}{subsection.6.2.4}{}}
\@writefile{lof}{\contentsline {figure}{\numberline {6.20}{\ignorespaces Simulation of Linux running on Vexriscv core\relax }}{51}{figure.caption.72}\protected@file@percent }
\newlabel{fig: linux_on_litex}{{6.20}{51}{Simulation of Linux running on Vexriscv core\relax }{figure.caption.72}{}}
\@writefile{lof}{\contentsline {figure}{\numberline {6.21}{\ignorespaces Successful compilation of the Vexriscv Core using Quartus\relax }}{52}{figure.caption.73}\protected@file@percent }
\newlabel{fig: compile vexriscv on fpga}{{6.21}{52}{Successful compilation of the Vexriscv Core using Quartus\relax }{figure.caption.73}{}}
\@writefile{lof}{\contentsline {figure}{\numberline {6.22}{\ignorespaces Vexriscv core successfully programmed on board using Quartus\relax }}{52}{figure.caption.74}\protected@file@percent }
\newlabel{fig: program vexriscv on fpga}{{6.22}{52}{Vexriscv core successfully programmed on board using Quartus\relax }{figure.caption.74}{}}
\@writefile{lof}{\contentsline {figure}{\numberline {6.23}{\ignorespaces Instruction to load Linux onto the Vexriscv image on FPGA\relax }}{52}{figure.caption.75}\protected@file@percent }
\newlabel{fig: linux vexriscv}{{6.23}{52}{Instruction to load Linux onto the Vexriscv image on FPGA\relax }{figure.caption.75}{}}
\@writefile{toc}{\contentsline {subsection}{\numberline {6.2.5}Experiment 5 - RS7 \& RS8 - Implementing FFT on Linux, on RISC-V on FPGA - Results}{52}{subsection.6.2.5}\protected@file@percent }
\newlabel{subsec: experiment RV 5 results}{{6.2.5}{52}{Experiment 5 - RS7 \& RS8 - Implementing FFT on Linux, on RISC-V on FPGA - Results}{subsection.6.2.5}{}}
\@writefile{toc}{\contentsline {subsection}{\numberline {6.2.6}Experiment 6 - RS9 - Speed, Resources Consumed and Ease of Implementation - Results}{52}{subsection.6.2.6}\protected@file@percent }
\newlabel{subsec: experiment RV 6 results}{{6.2.6}{52}{Experiment 6 - RS9 - Speed, Resources Consumed and Ease of Implementation - Results}{subsection.6.2.6}{}}
\@writefile{toc}{\contentsline {subsubsection}{Speed}{53}{section*.76}\protected@file@percent }
\@writefile{lof}{\contentsline {figure}{\numberline {6.24}{\ignorespaces Time taken to execute the FFT on Linux, on RISC-V in Qemu\relax }}{53}{figure.caption.77}\protected@file@percent }
\newlabel{fig: fft exe qemu}{{6.24}{53}{Time taken to execute the FFT on Linux, on RISC-V in Qemu\relax }{figure.caption.77}{}}
\@writefile{toc}{\contentsline {subsubsection}{Resources Consumed}{53}{section*.78}\protected@file@percent }
\@writefile{lot}{\contentsline {table}{\numberline {6.4}{\ignorespaces FPGA Resources Utilised after Compiling and Programming Vexriscv\relax }}{53}{table.caption.79}\protected@file@percent }
\newlabel{tbl: RV FPGA usage results}{{6.4}{53}{FPGA Resources Utilised after Compiling and Programming Vexriscv\relax }{table.caption.79}{}}
\@writefile{toc}{\contentsline {subsubsection}{Ease of Implementation}{54}{section*.80}\protected@file@percent }
\@writefile{lot}{\contentsline {table}{\numberline {6.5}{\ignorespaces Tabulation of the Ease of Implementing the FFT in Qemu\relax }}{54}{table.caption.81}\protected@file@percent }
\newlabel{tbl: results ease of implement RV Qemu}{{6.5}{54}{Tabulation of the Ease of Implementing the FFT in Qemu\relax }{table.caption.81}{}}
\@writefile{lot}{\contentsline {table}{\numberline {6.6}{\ignorespaces Tabulation of the Ease of Implementing the FFT on Linux on Vexriscv on FPGA\relax }}{55}{table.caption.82}\protected@file@percent }
\newlabel{tbl: results ease of implement RV FPGA}{{6.6}{55}{Tabulation of the Ease of Implementing the FFT on Linux on Vexriscv on FPGA\relax }{table.caption.82}{}}
\@setckpt{Results}{
\setcounter{page}{56}
\setcounter{equation}{1}
\setcounter{enumi}{8}
\setcounter{enumii}{6}
\setcounter{enumiii}{0}
\setcounter{enumiv}{0}
\setcounter{footnote}{0}
\setcounter{mpfootnote}{0}
\setcounter{part}{0}
\setcounter{chapter}{6}
\setcounter{section}{2}
\setcounter{subsection}{6}
\setcounter{subsubsection}{0}
\setcounter{paragraph}{0}
\setcounter{subparagraph}{0}
\setcounter{figure}{24}
\setcounter{table}{6}
\setcounter{parentequation}{0}
\setcounter{Item}{44}
\setcounter{Hfootnote}{0}
\setcounter{bookmark@seq@number}{63}
\setcounter{caption@flags}{0}
\setcounter{ContinuedFloat}{0}
\setcounter{subfigure}{0}
\setcounter{subtable}{0}
\setcounter{lstnumber}{17}
\setcounter{AM@survey}{0}
\setcounter{AlgoLine}{0}
\setcounter{algocfline}{0}
\setcounter{algocfproc}{0}
\setcounter{algocf}{0}
\setcounter{section@level}{3}
\setcounter{lstlisting}{0}
}
