/*
WARNING: Do NOT edit the input and output ports in this file in a text
editor if you plan to continue editing the block that represents it in
the Block Editor! File corruption is VERY likely to occur.
*/
/*
Copyright (C) 2020  Intel Corporation. All rights reserved.
Your use of Intel Corporation's design tools, logic functions 
and other software and tools, and any partner logic 
functions, and any output files from any of the foregoing 
(including device programming or simulation files), and any 
associated documentation or information are expressly subject 
to the terms and conditions of the Intel Program License 
Subscription Agreement, the Intel Quartus Prime License Agreement,
the Intel FPGA IP License Agreement, or other applicable license
agreement, including, without limitation, that your use is for
the sole purpose of programming logic devices manufactured by
Intel and sold by Intel or its authorized distributors.  Please
refer to the applicable agreement for further details, at
https://fpgasoftware.intel.com/eula.
*/
(header "graphic" (version "1.4"))
(pin
	(input)
	(rect 64 208 240 224)
	(text "INPUT" (rect 133 0 161 10)(font "Arial" (font_size 6)))
	(text "clk" (rect 9 0 23 12)(font "Arial" ))
	(pt 176 8)
	(drawing
		(line (pt 92 12)(pt 117 12))
		(line (pt 92 4)(pt 117 4))
		(line (pt 121 8)(pt 176 8))
		(line (pt 92 12)(pt 92 4))
		(line (pt 117 4)(pt 121 8))
		(line (pt 117 12)(pt 121 8))
	)
	(text "VCC" (rect 136 7 156 17)(font "Arial" (font_size 6)))
	(annotation_block (location)(rect 8 224 64 248))
)
(pin
	(input)
	(rect 368 344 544 360)
	(text "INPUT" (rect 133 0 161 10)(font "Arial" (font_size 6)))
	(text "dout" (rect 9 0 30 12)(font "Arial" ))
	(pt 176 8)
	(drawing
		(line (pt 92 12)(pt 117 12))
		(line (pt 92 4)(pt 117 4))
		(line (pt 121 8)(pt 176 8))
		(line (pt 92 12)(pt 92 4))
		(line (pt 117 4)(pt 121 8))
		(line (pt 117 12)(pt 121 8))
	)
	(text "VCC" (rect 136 7 156 17)(font "Arial" (font_size 6)))
	(annotation_block (location)(rect 312 360 368 384))
)
(pin
	(output)
	(rect 896 200 1072 216)
	(text "OUTPUT" (rect 1 0 39 10)(font "Arial" (font_size 6)))
	(text "sclk" (rect 90 0 110 12)(font "Arial" ))
	(pt 0 8)
	(drawing
		(line (pt 0 8)(pt 52 8))
		(line (pt 52 4)(pt 78 4))
		(line (pt 52 12)(pt 78 12))
		(line (pt 52 12)(pt 52 4))
		(line (pt 78 4)(pt 82 8))
		(line (pt 82 8)(pt 78 12))
		(line (pt 78 12)(pt 82 8))
	)
	(annotation_block (location)(rect 1072 216 1136 240))
)
(pin
	(output)
	(rect 896 224 1072 240)
	(text "OUTPUT" (rect 1 0 39 10)(font "Arial" (font_size 6)))
	(text "din" (rect 90 0 104 12)(font "Arial" ))
	(pt 0 8)
	(drawing
		(line (pt 0 8)(pt 52 8))
		(line (pt 52 4)(pt 78 4))
		(line (pt 52 12)(pt 78 12))
		(line (pt 52 12)(pt 52 4))
		(line (pt 78 4)(pt 82 8))
		(line (pt 82 8)(pt 78 12))
		(line (pt 78 12)(pt 82 8))
	)
	(annotation_block (location)(rect 1072 240 1136 264))
)
(pin
	(output)
	(rect 896 248 1072 264)
	(text "OUTPUT" (rect 1 0 39 10)(font "Arial" (font_size 6)))
	(text "cs" (rect 90 0 101 12)(font "Arial" ))
	(pt 0 8)
	(drawing
		(line (pt 0 8)(pt 52 8))
		(line (pt 52 4)(pt 78 4))
		(line (pt 52 12)(pt 78 12))
		(line (pt 52 12)(pt 52 4))
		(line (pt 78 4)(pt 82 8))
		(line (pt 82 8)(pt 78 12))
		(line (pt 78 12)(pt 82 8))
	)
	(annotation_block (location)(rect 1072 264 1136 288))
)
(symbol
	(rect 296 152 536 304)
	(text "pll" (rect 114 0 129 16)(font "Arial" (font_size 10)))
	(text "inst2" (rect 8 136 31 148)(font "Arial" ))
	(port
		(pt 0 64)
		(input)
		(text "inclk0" (rect 0 0 31 14)(font "Arial" (font_size 8)))
		(text "inclk0" (rect 4 50 35 64)(font "Arial" (font_size 8)))
		(line (pt 0 64)(pt 40 64))
	)
	(port
		(pt 240 64)
		(output)
		(text "c0" (rect 0 0 14 14)(font "Arial" (font_size 8)))
		(text "c0" (rect 224 50 238 64)(font "Arial" (font_size 8)))
	)
	(drawing
		(text "Cyclone IV E" (rect 164 136 230 148)(font "Arial" ))
		(text "inclk0 frequency: 50.000 MHz" (rect 50 59 197 71)(font "Arial" ))
		(text "Operation Mode: Normal" (rect 50 72 169 84)(font "Arial" ))
		(text "Clk " (rect 51 93 71 105)(font "Arial" ))
		(text "Ratio" (rect 72 93 97 105)(font "Arial" ))
		(text "Ph (dg)" (rect 99 93 134 105)(font "Arial" ))
		(text "DC (%)" (rect 133 93 169 105)(font "Arial" ))
		(text "c0" (rect 54 107 65 119)(font "Arial" ))
		(text "8/125" (rect 72 107 99 119)(font "Arial" ))
		(text "0.00" (rect 105 107 126 119)(font "Arial" ))
		(text "50.00" (rect 137 107 164 119)(font "Arial" ))
		(line (pt 0 0)(pt 241 0))
		(line (pt 241 0)(pt 241 153))
		(line (pt 0 153)(pt 241 153))
		(line (pt 0 0)(pt 0 153))
		(line (pt 48 91)(pt 165 91))
		(line (pt 48 104)(pt 165 104))
		(line (pt 48 118)(pt 165 118))
		(line (pt 48 91)(pt 48 118))
		(line (pt 69 91)(pt 69 118)(line_width 3))
		(line (pt 96 91)(pt 96 118)(line_width 3))
		(line (pt 130 91)(pt 130 118)(line_width 3))
		(line (pt 164 91)(pt 164 118))
		(line (pt 40 48)(pt 207 48))
		(line (pt 207 48)(pt 207 135))
		(line (pt 40 135)(pt 207 135))
		(line (pt 40 48)(pt 40 135))
		(line (pt 239 64)(pt 207 64))
	)
)
(symbol
	(rect 608 184 776 360)
	(text "spi_interface" (rect 5 0 68 12)(font "Arial" ))
	(text "inst" (rect 8 160 25 172)(font "Arial" ))
	(port
		(pt 0 32)
		(input)
		(text "clk" (rect 0 0 14 12)(font "Arial" ))
		(text "clk" (rect 21 27 35 39)(font "Arial" ))
		(line (pt 0 32)(pt 16 32))
	)
	(port
		(pt 0 48)
		(input)
		(text "dout" (rect 0 0 21 12)(font "Arial" ))
		(text "dout" (rect 21 43 42 55)(font "Arial" ))
		(line (pt 0 48)(pt 16 48))
	)
	(port
		(pt 168 32)
		(output)
		(text "sclk" (rect 0 0 20 12)(font "Arial" ))
		(text "sclk" (rect 131 27 147 39)(font "Arial" ))
		(line (pt 168 32)(pt 152 32))
	)
	(port
		(pt 168 48)
		(output)
		(text "din" (rect 0 0 14 12)(font "Arial" ))
		(text "din" (rect 136 43 147 55)(font "Arial" ))
		(line (pt 168 48)(pt 152 48))
	)
	(port
		(pt 168 64)
		(output)
		(text "cs" (rect 0 0 11 12)(font "Arial" ))
		(text "cs" (rect 138 59 147 71)(font "Arial" ))
		(line (pt 168 64)(pt 152 64))
	)
	(port
		(pt 168 80)
		(output)
		(text "count[3..0]" (rect 0 0 53 12)(font "Arial" ))
		(text "count[3..0]" (rect 103 75 147 87)(font "Arial" ))
		(line (pt 168 80)(pt 152 80)(line_width 3))
	)
	(port
		(pt 168 96)
		(output)
		(text "dataout[11..0]" (rect 0 0 68 12)(font "Arial" ))
		(text "dataout[11..0]" (rect 90 91 147 103)(font "Arial" ))
		(line (pt 168 96)(pt 152 96)(line_width 3))
	)
	(port
		(pt 168 112)
		(output)
		(text "clock_out" (rect 0 0 47 12)(font "Arial" ))
		(text "clock_out" (rect 108 107 147 119)(font "Arial" ))
		(line (pt 168 112)(pt 152 112))
	)
	(port
		(pt 168 128)
		(output)
		(text "LED[7..0]" (rect 0 0 47 12)(font "Arial" ))
		(text "LED[7..0]" (rect 108 123 147 135)(font "Arial" ))
		(line (pt 168 128)(pt 152 128)(line_width 3))
	)
	(drawing
		(rectangle (rect 16 16 152 160))
	)
)
(connector
	(pt 592 352)
	(pt 592 232)
)
(connector
	(pt 896 208)
	(pt 848 208)
)
(connector
	(pt 848 256)
	(pt 896 256)
)
(connector
	(pt 232 216)
	(pt 240 216)
)
(connector
	(pt 240 216)
	(pt 296 216)
)
(connector
	(pt 848 208)
	(pt 848 216)
)
(connector
	(pt 776 216)
	(pt 848 216)
)
(connector
	(pt 848 256)
	(pt 848 248)
)
(connector
	(pt 776 232)
	(pt 896 232)
)
(connector
	(pt 848 248)
	(pt 776 248)
)
(connector
	(pt 592 232)
	(pt 608 232)
)
(connector
	(pt 536 216)
	(pt 608 216)
)
(connector
	(pt 592 352)
	(pt 544 352)
)
(junction (pt 240 216))
