Info: Starting: Create block symbol file (.bsf)
Info: qsys-generate C:\Users\Mahesh\Documents\2020\De0_Nano\Tutorials\spectrum_analyser_verilog\fft.qsys --block-symbol-file --output-directory=C:\Users\Mahesh\Documents\2020\De0_Nano\Tutorials\spectrum_analyser_verilog\fft --family="Cyclone IV E" --part=EP4CE22F17C6
Progress: Loading spectrum_analyser_verilog/fft.qsys
Progress: Reading input file
Progress: Adding fft_ii_0 [altera_fft_ii 20.1]
Progress: Parameterizing module fft_ii_0
Progress: Building connections
Progress: Parameterizing connections
Progress: Validating
Progress: Done reading input file
Info: fft.fft_ii_0: Radix-2 digit reverse implied
Info: qsys-generate succeeded.
Info: Finished: Create block symbol file (.bsf)
Info: 
Info: Starting: Create HDL design files for synthesis
Info: qsys-generate C:\Users\Mahesh\Documents\2020\De0_Nano\Tutorials\spectrum_analyser_verilog\fft.qsys --synthesis=VERILOG --output-directory=C:\Users\Mahesh\Documents\2020\De0_Nano\Tutorials\spectrum_analyser_verilog\fft\synthesis --family="Cyclone IV E" --part=EP4CE22F17C6
Progress: Loading spectrum_analyser_verilog/fft.qsys
Progress: Reading input file
Progress: Adding fft_ii_0 [altera_fft_ii 20.1]
Progress: Parameterizing module fft_ii_0
Progress: Building connections
Progress: Parameterizing connections
Progress: Validating
Progress: Done reading input file
Info: fft.fft_ii_0: Radix-2 digit reverse implied
Info: fft: Generating fft "fft" for QUARTUS_SYNTH
Info: fft_ii_0: --- add file: fft_fft_ii_0_opt_twi1.hex
Info: fft_ii_0: --- add file: fft_fft_ii_0_opt_twr4.hex
Info: fft_ii_0: --- add file: fft_fft_ii_0_opt_twr1.hex
Info: fft_ii_0: --- add file: fft_fft_ii_0_opt_twi2.hex
Info: fft_ii_0: --- add file: fft_fft_ii_0_opt_twi3.hex
Info: fft_ii_0: --- add file: fft_fft_ii_0_opt_twr2.hex
Info: fft_ii_0: --- add file: fft_fft_ii_0_opt_twi4.hex
Info: fft_ii_0: --- add file: fft_fft_ii_0_opt_twr3.hex
Info: fft_ii_0: "fft" instantiated altera_fft_ii "fft_ii_0"
Info: fft: Done "fft" with 2 modules, 50 files
Info: qsys-generate succeeded.
Info: Finished: Create HDL design files for synthesis
