{
	"partitions" : [
		{
			"name" : "Top",
			"pins" : [
				{
					"name" : "LED[0]",
					"strict" : false
				},
				{
					"name" : "LED[1]",
					"strict" : false
				},
				{
					"name" : "LED[2]",
					"strict" : false
				},
				{
					"name" : "LED[3]",
					"strict" : false
				},
				{
					"name" : "LED[4]",
					"strict" : false
				},
				{
					"name" : "LED[5]",
					"strict" : false
				},
				{
					"name" : "LED[6]",
					"strict" : false
				},
				{
					"name" : "LED[7]",
					"strict" : false
				},
				{
					"name" : "sclk",
					"strict" : false
				},
				{
					"name" : "cs",
					"strict" : false
				},
				{
					"name" : "count[0]",
					"strict" : false
				},
				{
					"name" : "count[1]",
					"strict" : false
				},
				{
					"name" : "count[2]",
					"strict" : false
				},
				{
					"name" : "count[3]",
					"strict" : false
				},
				{
					"name" : "dataout[1]",
					"strict" : false
				},
				{
					"name" : "dataout[2]",
					"strict" : false
				},
				{
					"name" : "dataout[3]",
					"strict" : false
				},
				{
					"name" : "dataout[4]",
					"strict" : false
				},
				{
					"name" : "dataout[5]",
					"strict" : false
				},
				{
					"name" : "dataout[6]",
					"strict" : false
				},
				{
					"name" : "dataout[7]",
					"strict" : false
				},
				{
					"name" : "dataout[8]",
					"strict" : false
				},
				{
					"name" : "dataout[9]",
					"strict" : false
				},
				{
					"name" : "dataout[10]",
					"strict" : false
				},
				{
					"name" : "dataout[11]",
					"strict" : false
				},
				{
					"name" : "clock_out",
					"strict" : false
				},
				{
					"name" : "real_power[0]",
					"strict" : false
				},
				{
					"name" : "real_power[1]",
					"strict" : false
				},
				{
					"name" : "real_power[2]",
					"strict" : false
				},
				{
					"name" : "real_power[3]",
					"strict" : false
				},
				{
					"name" : "real_power[4]",
					"strict" : false
				},
				{
					"name" : "real_power[5]",
					"strict" : false
				},
				{
					"name" : "real_power[6]",
					"strict" : false
				},
				{
					"name" : "real_power[7]",
					"strict" : false
				},
				{
					"name" : "real_power[8]",
					"strict" : false
				},
				{
					"name" : "real_power[9]",
					"strict" : false
				},
				{
					"name" : "real_power[10]",
					"strict" : false
				},
				{
					"name" : "real_power[11]",
					"strict" : false
				},
				{
					"name" : "real_power[12]",
					"strict" : false
				},
				{
					"name" : "real_power[13]",
					"strict" : false
				},
				{
					"name" : "real_power[14]",
					"strict" : false
				},
				{
					"name" : "real_power[15]",
					"strict" : false
				},
				{
					"name" : "real_power[16]",
					"strict" : false
				},
				{
					"name" : "real_power[17]",
					"strict" : false
				},
				{
					"name" : "real_power[18]",
					"strict" : false
				},
				{
					"name" : "real_power[19]",
					"strict" : false
				},
				{
					"name" : "real_power[20]",
					"strict" : false
				},
				{
					"name" : "real_power[21]",
					"strict" : false
				},
				{
					"name" : "real_power[22]",
					"strict" : false
				},
				{
					"name" : "imag_power[0]",
					"strict" : false
				},
				{
					"name" : "imag_power[1]",
					"strict" : false
				},
				{
					"name" : "imag_power[2]",
					"strict" : false
				},
				{
					"name" : "imag_power[3]",
					"strict" : false
				},
				{
					"name" : "imag_power[4]",
					"strict" : false
				},
				{
					"name" : "imag_power[5]",
					"strict" : false
				},
				{
					"name" : "imag_power[6]",
					"strict" : false
				},
				{
					"name" : "imag_power[7]",
					"strict" : false
				},
				{
					"name" : "imag_power[8]",
					"strict" : false
				},
				{
					"name" : "imag_power[9]",
					"strict" : false
				},
				{
					"name" : "imag_power[10]",
					"strict" : false
				},
				{
					"name" : "imag_power[11]",
					"strict" : false
				},
				{
					"name" : "imag_power[12]",
					"strict" : false
				},
				{
					"name" : "imag_power[13]",
					"strict" : false
				},
				{
					"name" : "imag_power[14]",
					"strict" : false
				},
				{
					"name" : "imag_power[15]",
					"strict" : false
				},
				{
					"name" : "imag_power[16]",
					"strict" : false
				},
				{
					"name" : "imag_power[17]",
					"strict" : false
				},
				{
					"name" : "imag_power[18]",
					"strict" : false
				},
				{
					"name" : "imag_power[19]",
					"strict" : false
				},
				{
					"name" : "imag_power[20]",
					"strict" : false
				},
				{
					"name" : "imag_power[21]",
					"strict" : false
				},
				{
					"name" : "imag_power[22]",
					"strict" : false
				},
				{
					"name" : "sink_valid",
					"strict" : false
				},
				{
					"name" : "sink_sop",
					"strict" : false
				},
				{
					"name" : "fft_source_sop",
					"strict" : false
				},
				{
					"name" : "KEY[0]",
					"strict" : false
				},
				{
					"name" : "CLOCK_50",
					"strict" : false
				},
				{
					"name" : "KEY[1]",
					"strict" : false
				},
				{
					"name" : "dout",
					"strict" : false
				},
				{
					"name" : "altera_reserved_tms",
					"strict" : false
				},
				{
					"name" : "altera_reserved_tck",
					"strict" : false
				},
				{
					"name" : "altera_reserved_tdi",
					"strict" : false
				},
				{
					"name" : "altera_reserved_tdo",
					"strict" : false
				}
			]
		}
	]
}